<?xml version="1.0" encoding="utf-8"?>
<!-- Generator: Adobe Illustrator 19.0.0, SVG Export Plug-In . SVG Version: 6.00 Build 0)  -->
<svg version="1.1" id="Layer_1" xmlns:svg="http://www.w3.org/2000/svg"
	 xmlns="http://www.w3.org/2000/svg" xmlns:xlink="http://www.w3.org/1999/xlink" x="0px" y="0px" viewBox="563 -202.2 1353.3 630"
	 style="enable-background:new 563 -202.2 1353.3 630;" xml:space="preserve">
<style type="text/css">
	.st0{fill:#FEFEFE;}
	.st1{fill:#454345;}
	.st2{fill:#EBEBEB;}
	.st3{fill:#3A383A;}
	.st4{fill:#3C393A;}
	.st5{fill:#EF4600;}
	.st6{fill:#F24D00;}
	.st7{fill:#FB5E00;}
	.st8{fill:#F14900;}
	.st9{fill:#ED4200;}
	.st10{fill:#EB3E00;}
	.st11{fill:#F45201;}
	.st12{fill:#747274;}
	.st13{fill:#878587;}
	.st14{fill:#E93B01;}
	.st15{fill:#898889;}
	.st16{fill:#EF4701;}
	.st17{fill:#5B595B;}
	.st18{fill:#908E90;}
	.st19{fill:#BAB9BA;}
	.st20{fill:#6D6B6D;}
	.st21{fill:#4F4C4F;}
	.st22{fill:#636263;}
	.st23{fill:#6E6D6E;}
	.st24{fill:#555255;}
	.st25{fill:#676567;}
	.st26{fill:#F86413;}
	.st27{fill:#656565;}
	.st28{fill:#B5B4B5;}
	.st29{fill:#7A787A;}
	.st30{fill:#6A696A;}
	.st31{fill:#686768;}
	.st32{fill:#5F5D5F;}
	.st33{fill:#7A797A;}
	.st34{fill:#807F80;}
	.st35{fill:#DFDFDF;}
	.st36{fill:#959495;}
	.st37{fill:#6E6C6E;}
	.st38{fill:#555555;}
	.st39{fill:#737273;}
	.st40{fill:#E3E2E3;}
	.st41{fill:#EB4002;}
	.st42{fill:#969596;}
	.st43{fill:#E5E4E5;}
	.st44{fill:#4F4D4F;}
	.st45{fill:#747374;}
	.st46{fill:#585658;}
	.st47{fill:#797879;}
	.st48{fill:#3E3C3E;}
	.st49{fill:#646464;}
	.st50{fill:#AAA9AA;}
	.st51{fill:#504E50;}
	.st52{fill:#484748;}
	.st53{fill:#737173;}
	.st54{fill:#676467;}
	.st55{fill:#464446;}
	.st56{fill:#4C4A4C;}
	.st57{fill:#5A5A5A;}
	.st58{fill:#7D7C7D;}
	.st59{fill:#757575;}
	.st60{fill:#FDFDFD;}
	.st61{fill:#F45100;}
	.st62{fill:#F85900;}
	.st63{fill:#F65400;}
	.st64{fill:#D6D6D6;}
	.st65{fill:#F6F6F6;}
	.st66{fill:#DBDBDB;}
	.st67{fill:#484648;}
	.st68{fill:#E0E0E0;}
	.st69{fill:#FBD6B1;}
	.st70{fill:#4E2E22;}
	.st71{fill:#EC6180;}
	.st72{fill:#2E2D2D;}
	.st73{fill:#F8F8F8;}
	.st74{fill:#7A7B7C;}
	.st75{fill:#90B39B;}
	.st76{fill:#84572F;}
	.st77{fill:#6E492A;}
	.st78{fill:#5E3E25;}
	.st79{fill:#F8EF16;}
	.st80{fill:#464648;}
	.st81{fill:#789683;}
	.st82{fill:#2C1913;}
	.st83{fill:#FBD8B5;}
	.st84{fill:#2D2D2D;}
	.st85{font-family:'Ubuntu-Bold';}
	.st86{font-size:219px;}
	.st87{font-size:163.5294px;}
</style>
<g>
	<g>
		<path class="st0" d="M1277.8-146.8c21.6,0,43.2,0.1,64.8-0.1c3.4,0,4.5,0.6,4.5,4.3c-0.1,60.5-0.2,120.9,0,181.4
			c0,4.2-1.1,4.7-4.9,4.7c-60.2-0.1-120.5-0.1-180.7,0c-3.8,0-4.9-0.5-4.9-4.7c0.2-60.5,0.2-120.9,0-181.4c0-3.8,1.1-4.3,4.5-4.3
			c26.4,0.1,52.8,0.1,79.2,0.1c1.5,1.4,1.7,3.4,2,5.3c0.4,2.4,1.6,4.1,4.3,4c2.5-0.1,3.1-1.9,3.3-4c0.3-1.9,0.4-3.8,1.9-5.3
			c6.2,0,12.5,0,18.7,0c0.4,0.4,0.8,0.9,1.2,1.5c0.6,1.2,0.7,3.1,2.4,3.1c1.8,0,1.8-1.9,2.4-3.1
			C1277-145.8,1277.4-146.3,1277.8-146.8z"/>
		<path class="st1" d="M1251.9-146.8c0.1,1.4,0.1,2.9,0.2,4.3c0.5,4.3-0.1,7-5.8,6.9c-5.5-0.1-6.4-2.5-5.9-6.9c0.2-1.4,0-2.8,0-4.3
			C1244.2-146.8,1248-146.8,1251.9-146.8z"/>
		<path class="st2" d="M1270.9-144.9c-0.1-0.6-0.2-1.3-0.3-1.9c2.4,0,4.8,0,7.2,0c0,0.5-0.1,1.1-0.1,1.6
			C1275.5-143.5,1273.2-143.3,1270.9-144.9z"/>
		<path class="st3" d="M1309.9-48c0-7.2-0.3-13.5,0.1-19.7c0.2-2.9-2.3-7.5,2.8-8.3c4.9-0.8,10.2-1,13.6,4.2
			c1.3,2.1,1.7,4.4,1.7,6.9c-0.1,16.8,0,33.6-0.1,50.4c-0.1,12.6-4.7,22.3-17.4,27c-13.6,5-27.4,6.1-38.7-3.9
			c-11.4-10.1-10.8-24.4-9.1-38.3c0.9-7.5,3.9-14.3,9.4-19.8C1282-59.4,1294.6-59.1,1309.9-48z"/>
		<path class="st3" d="M1229.9,16.1c-7.5,0-13.4-1-19-3.4c-4.1-1.7-7.7-4.2-9.5-8.4c-1.7-4-4.8-8.7-0.8-12.4
			c3.3-3.1,15,0.4,17.2,4.3c3.6,6.3,16.1,8.5,21.8,3.9c3.5-2.8,3.3-7.2-0.9-9.3c-3-1.5-6.3-2.3-9.6-3c-5.9-1.2-11.7-2.8-17.2-5.1
			c-7.1-3-11.2-8.1-11.5-15.9c-0.3-8,2.2-14.9,9.5-18.9c12.5-6.8,25.3-6.6,37.9,0c2.1,1.1,4,2.8,5.4,4.6c2.8,3.8,5.9,8.1,4,13.1
			c-0.9,2.5-14,0.7-16.6-2.5c-4.2-4.9-9.3-6.6-15.4-5.5c-2.9,0.5-5.8,1.4-6.3,4.9c-0.5,3.7,2.4,5,5.2,5.9c3.9,1.2,7.9,2,11.8,3.1
			c4.4,1.3,8.8,2.5,13,4.2c7.3,2.9,11.8,8.2,11.8,16.4c0.1,8.6-3.2,15.5-11.1,19.5C1242.9,15.1,1235.7,16,1229.9,16.1z"/>
		<path class="st3" d="M1176.4-20.7c0-8.6-0.3-17.2,0.1-25.8c0.2-3.2-3.1-8.7,4.4-8.9c8.3-0.2,13,2.7,13.4,9.4
			c0.3,4.5,0.1,9.1,0.1,13.6c0,13.6-0.1,27.3,0.1,40.9c0.1,4.3-0.6,6.4-5.7,6.3c-12.4-0.2-12.4,0.1-12.4-12.5
			C1176.4-5.4,1176.4-13,1176.4-20.7z"/>
		<path class="st4" d="M1207.3-115.5c0.2-1.2,0.4-2.4,0.5-3.5c0.5-12.4,0.4-12.5,12.6-12.4c6.2,0.1,14.1-2.6,18,1.1
			c4,3.8,1.2,11.8,1.3,17.9c0.2,11.7,0.1,11.7-11.9,12.3c-1.2,0.1-2.3,0.4-3.5,0.7c-0.5,0.5-1.2,0.8-2,0.8c-5-0.9-10.4,1.1-15-2.3
			c-0.6-0.6-1-1.2-1.3-1.9c-0.8-2.3-0.7-4.7-0.7-7.1C1205.3-112,1205.9-113.9,1207.3-115.5z"/>
		<path class="st5" d="M1207.3-115.5c0,2,0,4.1,0,6.1c-2.6,4.6-6.3,8.5-10.5,11.6c-4.8,3.7-8.9,7.9-12.7,12.6
			c-2.1,2.6-3.9,6.4-8.5,4.6c0-1.9,0-3.9,0-5.8c3.3-7.2,8.8-12.7,15-17.4c3-2.3,6.1-4.4,8-8.1c-2.4-0.3-4.7,0.1-6.9,0.1
			c-2.3,0.1-4.5,0.1-6.8,0.1c-3.2-0.1-6.6,0.5-9.3-2c1.1-3.4,4-1.7,6-1.8C1190.3-115.6,1198.8-115.5,1207.3-115.5z"/>
		<path class="st6" d="M1175.9-67.5c0-1.9-0.1-3.9-0.1-5.8c7.8-10.5,18.8-17.9,27.1-27.9c1-1.2,2.7-1.9,4.5-1.1l-0.1,0
			c0.7,1.6,1.7,3,2,4.7c0,1.5-0.2,3.1-1.2,4c-9.5,8.5-16.4,19.5-27.2,26.6C1179.2-66.9,1177.4-66.3,1175.9-67.5z"/>
		<path class="st7" d="M1175.9-67.5c1.8,0,3.6-0.1,5.4-0.1c2.5-1.5,5.3-2.1,8.2-1.9c2.3,0,4.6-0.1,7,0c13.8,0.3,24.6-10,24.7-23.6
			c0-1.5,0.1-3,0.6-4.4c0.3-0.7,0.7-1.3,1.3-1.8c0.4-0.2,0.8-0.2,1.2,0c0,9.3,0,18.7,0,28c0,2.8,0,5.3-4,5.2
			c-14.4-0.1-28.8-0.1-43.1-0.2C1176.7-66.2,1176.3-67,1175.9-67.5z"/>
		<path class="st8" d="M1207.4-102.2c-6.2,3.7-9.8,10.2-15.3,14.5c-5.7,4.5-9.6,11.1-16.3,14.4c0-2.4,0-4.8,0-7.2
			c3.5-0.3,5.5-3,7.1-5.5c6.5-9.6,16.5-15.5,24.5-23.4C1207.4-107,1207.4-104.6,1207.4-102.2z"/>
		<path class="st9" d="M1192.8-113.6c2.4,0,4.7,0,9.1,0c-7.5,11.6-19.1,17.4-26.1,27.3c0-3.4,0-6.7,0-10.1
			C1180.5-103,1187.3-107.7,1192.8-113.6z"/>
		<path class="st10" d="M1192.8-113.6c-3.5,7.9-10.5,12.4-17,17.2c0-2.4,0-4.8,0-7.2c2.5-4.1,6.7-6.6,9.8-10
			C1188-113.6,1190.4-113.6,1192.8-113.6z"/>
		<path class="st11" d="M1264.9-113.7c-0.2,0-0.5,0.1-0.7,0.1c-11.7,0.5-13.5-2.2-9.4-14.3c1.1,1,1.6,2.3,1.7,3.7
			c0.1,1.3,0.1,2.6,0.2,3.9c3.5,2.8,3.7-1.8,5.7-2.6c2-0.8,3.4-4.7,6.1-1C1267.6-120.4,1270.8-115.4,1264.9-113.7z"/>
		<path class="st12" d="M1247.6,36.3c-0.5,0-1,0-1.5,0c-1.4-1-1.4-3.1-3.4-3.5c-1.2-0.3-2.4-0.4-3.6-0.6c-1.4-0.2-2.7-0.5-3.6-1.8
			c-0.2-1.8-0.6-3.6,0.4-5.3c3.6,2.7,9.3,2.6,12.4-0.1c0.8-0.7,1.7,0,2.2,0.9c0.9,0.9,1.3,2,1.5,3.2c0.2,2,0.2,4.1-0.6,6
			C1250.6,36.7,1249.4,37.5,1247.6,36.3z"/>
		<path class="st13" d="M1247.6,36.3c1.3-0.1,2.5-0.4,3.1-1.7c1.6-1.7,1.5-3.5,0-5.2c0-1.2,0-2.3,0-3.5c3.7-3,5.8,1.3,8.6,1.9
			c0.7,1,0.8,1.9-0.2,2.7c-1.5,0.1-2.7,0.4-2.8,2.3C1255.8,40.2,1251.6,38,1247.6,36.3z"/>
		<path class="st14" d="M1185.6-113.6c-1.3,5.3-5.5,7.7-9.8,10c0-3.4,0-6.7,0-10.1C1179.1-113.6,1182.3-113.6,1185.6-113.6z"/>
		<path class="st6" d="M1267.6-125.2c-2.9,2.7-5.7,5.4-8.7,8.1c-3.6,3.3-4.2,1-4-2.3c2.6-3.7,6.7-5.7,10-8.7c1,0,1.9,0.1,2.9,0.1
			C1268.6-127,1268.6-126,1267.6-125.2z"/>
		<path class="st15" d="M1226,31.2c0.4,3.4,2.2,8.2-4.5,4.7c-1.9-2.3-1.6-4.5,0.1-6.8c1-1.4,2-2.8,3-4.1
			C1226.3,26.8,1227.1,28.8,1226,31.2z"/>
		<path class="st16" d="M1264.9-128.1c-1.5,5-5.7,6.8-10,8.7c0-1.4,0-2.9,0-4.3c1.4-2.1,3.7-2.9,5.6-4.4
			C1262-128.1,1263.4-128.1,1264.9-128.1z"/>
		<path class="st17" d="M1270.9-144.9c2.3-0.1,4.6-0.2,6.9-0.3c0.1,2.6,1.4,6-3.2,6.1C1270-138.8,1271.1-142.3,1270.9-144.9z"/>
		<path class="st1" d="M1319.5,40.4l-0.6,0.3l-0.6-0.2c-0.9-2.9-2-5.7-1.3-8.8c0.3-0.6,0.7-1.2,1.2-1.6c2-0.8,4.2,3.6,6.1-0.2
			c0.6-0.7,1.3-1.3,2.4-0.8c-0.2,2.5,1.4,5.2-1,7.4C1323.1,37,1320.2,36.9,1319.5,40.4z"/>
		<path class="st18" d="M1318.3,30.7c0,3.3,0,6.5,0,9.8c-2.1-0.6-0.7-3.7-3-4.2c-1.2-0.9-2.2-2-2.6-3.5c-0.5-1.9-0.2-3.7,1.1-5.2
			c1.6-0.7,2.8,0.1,4,1C1318.6,29.1,1318.8,29.8,1318.3,30.7z"/>
		<path class="st19" d="M1273.6,36.1c-1.1-0.4-2.1-0.8-3.2-1.3c-1.2,1.1-2.6,1.3-4.1,0.5c-1.2-1-1.4-2.4-1.1-3.8
			c1.4-3.1,4.5-1.8,6.8-2.5c1-0.4,2.1-0.7,3.1-1.1C1276,30.9,1275,33.6,1273.6,36.1z"/>
		<path class="st20" d="M1202.7,27.1c0.6-3,2.5-3.2,3.2-0.6c0.8,3.1,0.6,6.6-0.9,10.1c-3.3-1.8-2-4.1-2.2-6
			C1202,29.5,1202,28.3,1202.7,27.1z"/>
		<path class="st21" d="M1220.2,36.4c-6.4,1.4-8.1-0.6-6.1-7.5c1-0.6,1.7-0.1,2.4,0.6c0.8,1.6,1.7,3,3.5,3.6
			C1220.9,34.2,1221.2,35.3,1220.2,36.4z"/>
		<path class="st22" d="M1298,28.9c2.1-2.5,4.5-3.2,7.2-1c1.2,1.3,0.5,2.2-0.7,3c-2.1,0.2-2.9,1.6-3,3.6c-0.4,0.9-1.1,1.5-2,1.7
			c-0.9,0-1.4-0.5-1.5-1.4C1297,32.9,1296.9,30.9,1298,28.9z"/>
		<path class="st23" d="M1273.6,36.1c-0.6-2.9,0.3-5.6,1.6-8.2c1.3-0.5,2.6-1.2,3.8,0.2C1276.3,30.2,1278.6,35.6,1273.6,36.1z"/>
		<path class="st24" d="M1192.9,36.6c-2.1,1.9-4,1.2-5.9-0.3c-1.1-1.2-1.3-2.6-0.6-4.1c0.5-0.6,1.1-1,1.9-1.1c2,0,3.7,0.7,4.9,2.3
			C1193.8,34.5,1193.6,35.6,1192.9,36.6z"/>
		<path class="st25" d="M1304.1,30.5c0.4-0.8,0.7-1.7,1.1-2.5c0.9,0.3,1.8,0.5,2.7,0.8c2,2,1.9,4.1,0.2,6.2c-1,0.4-2,0.7-2.9,1.1
			c-1.1-0.3-1.9-0.9-2.3-1.9C1302.6,32.7,1302.6,31.3,1304.1,30.5z"/>
		<path class="st26" d="M1267.6-125.2c0.1-0.9,0.1-1.9,0.2-2.8c3.1,4,1.3,8.6,1.2,12.8c0,2.2-2.4,1.7-4.1,1.4
			C1269.1-116.7,1267.4-121.2,1267.6-125.2z"/>
		<path class="st27" d="M1236.1,30.5c1.5,0,3,0.1,4.5,0.1c1.3,1.9,1.5,3.8-0.2,5.6c-1.4,0.1-2.8,0.2-4.2,0.3
			C1234.9,34.5,1235,32.5,1236.1,30.5z"/>
		<path class="st28" d="M1199.8,31.8c0.7,4.7,0.1,7.7-5.6,4.4c-0.3-0.3-0.5-0.7-0.5-1.1c0-0.4,0.1-0.6,0.2-0.6
			c0.5-1.9-0.1-4.1,1.8-5.4c0.4,0,0.9,0,1.3,0c0.2,0.2,0.5,0.4,0.7,0.6c0.3,0.8,0.1,1.5,0.1,2.3c0.1,0.9,1.3,0.7,0.5,0.2
			c-0.8-0.5,1.1-1,0.2-0.6C1199.1,31.3,1199.5,31.4,1199.8,31.8z"/>
		<path class="st29" d="M1192.6,33.2c-1.4-0.4-2.8-0.9-4.2-1.3c0.9-1.6,0.1-3-0.2-4.5c1.6-1,3.1-1.7,4.6,0.1
			C1194.2,29.4,1194.6,31.3,1192.6,33.2z"/>
		<path class="st30" d="M1272.1,29c-1,3.2-3.6,1.7-5.6,1.7c-1.1-0.2-1.8-0.9-2.1-2C1267.1,25.3,1269.6,26.2,1272.1,29z"/>
		<path class="st1" d="M1259,30.6c0.1-0.9,0.1-1.8,0.2-2.7c0.9,0.5,1.8,0.9,2.6,1.4c2.4,2.8,2.4,5.5-0.3,8.2
			C1258.1,36.1,1260.5,32.6,1259,30.6z"/>
		<path class="st31" d="M1298,28.9c0,2,0,4,0,5.9c-2.2,0.2,0.7-7.3-4.3-2.9c-1.3,0.5-1.8-0.3-2.2-1.3c0-0.7,0.2-1.3,0.6-1.9
			C1294.1,26.1,1296,27.8,1298,28.9z"/>
		<path class="st32" d="M1289.6,39.4c-0.3,0.8-0.8,1.3-1.7,1.1c-0.5-0.3-1-0.7-1.3-1.1c-0.9-1.2-2.3-1.8-3.3-2.9
			c-0.3-0.6-0.3-1.2,0-1.7c0.6-0.7,1.3-1.3,2-1.9c1.7-0.9,1.1-4.3,4.1-3.7l0.1-0.1C1291.9,32.4,1291.3,35.9,1289.6,39.4z"/>
		<path class="st33" d="M1178.3,31.1c-2.1-1.4-1.6-2.8,0.1-3.8c2.4-1.4,4.6-1,6,1.6c-0.1,0.3-0.2,0.6-0.3,0.9
			c-0.4,0.5-0.8,0.9-1.4,1.2C1181.3,31.2,1179.8,31.4,1178.3,31.1z"/>
		<path class="st34" d="M1283.6,36.2c2.5,0,4.4,0.5,4.1,3.7c-1.8,1-3.8,0.6-5.7,0.9c-3-1.5,0.4-3,0.1-4.4
			C1282.6,35.8,1283.1,35.7,1283.6,36.2z"/>
		<path class="st31" d="M1283.6,36.2c-0.5,0-1,0.1-1.5,0.1c-2.2-3.4-4.4-6.8,1.4-9c0.5,0.4,0.8,1,1,1.6c0,1.9,0,3.8-0.8,5.6
			C1283.7,35.1,1283.6,35.7,1283.6,36.2z"/>
		<path class="st35" d="M1313.8,27.6c0.1,2,0.1,3.9,0.2,5.9c-0.1,2.4-1.5,2.2-3.2,1.6c-0.6-0.6-0.9-1.2-1.1-2
			c-0.2-2-0.2-3.9,1.2-5.5C1311.9,27.6,1312.9,27.6,1313.8,27.6z"/>
		<path class="st36" d="M1289.6,39.4c-0.1-3.5-0.1-6.9-0.2-10.4c0.9-0.1,1.8-0.1,2.6-0.2c0.1,0.6,0.1,1.1,0.2,1.7
			c-0.7,2.2-0.1,4.1,1.3,5.7C1293,38.3,1290.5,37.8,1289.6,39.4z"/>
		<path class="st37" d="M1283.8,29.6c-0.1-0.7-0.2-1.5-0.3-2.2c2.6-1.5,4.4-0.6,5.8,1.8c-2.3,1.2-0.3,4.6-3,5.6
			C1284.8,33.3,1284.6,31.3,1283.8,29.6z"/>
		<path class="st38" d="M1182.9,36.7c-1.7,0.5-3.3,2.5-5.3,0.3c-1.3-1.4-1.1-2.3,0.7-2.9c1.6-0.7,3.1-2.1,4.9-0.5
			C1183.7,34.7,1183.5,35.7,1182.9,36.7z"/>
		<path class="st39" d="M1318.3,30.7c-0.2-0.7-0.3-1.4-0.5-2.1c3.1-1.7,6.1-2.1,8.9,0.6c-0.6,0.6-1.1,1.2-1.7,1.8
			c-1.7,0.4-3.5,0.4-5.1-0.3C1319.4,30.6,1318.9,30.6,1318.3,30.7z"/>
		<path class="st40" d="M1182.6,33.2c-1.4,0.5-2.5,2.4-4.4,0.9c0-1,0-2,0-3c1.3-1.5,2.7-1.3,4.2-0.3
			C1183.4,31.5,1183.4,32.3,1182.6,33.2z"/>
		<path class="st41" d="M1260.5-128.1c-1.2,2.3-2.8,4.2-5.6,4.4c0-1.4-0.1-2.8-0.2-4.2C1256.7-128.7,1258.6-128.6,1260.5-128.1z"/>
		<path class="st42" d="M1187.1,32.1c0,1.4,0,2.8-0.1,4.1c-1,0-2-0.1-2.9-0.1c-1.1-2.3-0.7-4.6-0.3-6.9c0.2-0.1,0.4-0.2,0.6-0.3
			c0.4,0,0.7-0.1,1.1-0.2C1187,29.4,1187.8,30.4,1187.1,32.1z"/>
		<path class="st43" d="M1240.3,36.2c0.1-1.9,0.1-3.7,0.2-5.6c1.2,0,2.4,0,2.9,1.4c1.1,1.5,1,2.9-0.2,4.3
			C1242.3,36.4,1241.2,38,1240.3,36.2z"/>
		<path class="st44" d="M1236.1,30.5c0,2,0,4,0.1,6c-3.7-3.8-3-7.6-0.2-11.4C1236,26.9,1236,28.7,1236.1,30.5z"/>
		<path class="st45" d="M1216.1,30.8c-0.6-0.6-1.3-1.3-1.9-1.9c2-2,4-2,6.1-0.1c0.9,1.3,0.8,2.5-0.5,3.5
			C1218.2,32.6,1217.1,31.8,1216.1,30.8z"/>
		<path class="st46" d="M1264.5,28.8c0.7,0.7,1.4,1.3,2.1,2c0,1.3,0,2.7-0.1,4c-0.6,0.6-1.3,0.8-2.2,0.6c-2.4-1.8-1.9-4-0.8-6.2
			C1263.8,28.9,1264.1,28.8,1264.5,28.8z"/>
		<path class="st47" d="M1199.8,31.8c-0.4,0.1-0.7,0.2-1.1,0.3c-1.3-0.6-0.7-1.9-1.1-2.8c-0.2-0.1-0.5-0.2-0.7-0.3
			c1.4-2.1,3.6-1.9,5.7-1.9c0.1,1.2,0.1,2.3,0.2,3.5C1201.5,30.2,1200.4,30.5,1199.8,31.8z"/>
		<path class="st48" d="M1282,40.7c1.6-2.4,3.7-1.4,5.8-0.9c0,0,0.1,0.6,0.1,0.6C1286,43,1284.1,42.4,1282,40.7z"/>
		<path class="st49" d="M1243.2,36.3c0.1-1.4,0.1-2.9,0.2-4.3c4.9-1,1.5,3,2.7,4.3C1245.2,38.1,1244.2,36.5,1243.2,36.3z"/>
		<path class="st19" d="M1263.5,29.1c0.2,2-1,4.2,1.2,5.7c0.9,0.4,1,0.9,0.1,1.4c-1.1,0.3-2.1,0.7-3.2,1c0.1-2.7,0.2-5.4,0.3-8.2
			C1262.4,29.2,1263,29.2,1263.5,29.1z"/>
		<path class="st50" d="M1187.1,32.1c-0.5-1.1-1.1-2.3-1.6-3.4c0.5-1.2,1.5-1.4,2.7-1.4c1.3,1.4,2.9,2.9,0.2,4.5
			C1188,32,1187.5,32.1,1187.1,32.1z"/>
		<path class="st30" d="M1293.6,36.2c-4.1-1.1-3-3.3-1.3-5.7c0.5,0.5,1,1,1.4,1.5C1293.6,33.4,1293.6,34.8,1293.6,36.2z"/>
		<path class="st51" d="M1264.8,36.3c0-0.5-0.1-1-0.1-1.4c0.6,0,1.2-0.1,1.8-0.1c1.3,0,2.7,0.1,4,0.1
			C1269.6,39.5,1267.1,37.4,1264.8,36.3z"/>
		<path class="st52" d="M1303.7,34.8c0.5,0.4,1,0.9,1.4,1.3c-1.8,2-3.7,2.1-5.7,0.2c0.5-0.5,1-1,1.4-1.4
			C1301.8,33.9,1302.7,34,1303.7,34.8z"/>
		<path class="st53" d="M1310.9,33.4c0.2,0.4,0.3,0.8,0.2,1.2c0.6,0.9,0.4,1.6-0.4,2.2c-1.2-0.1-2-0.8-2.6-1.8
			c-0.1-2.1-0.1-4.1-0.2-6.2c0,0,0-0.1,0-0.1C1311.7,28.5,1309.3,32.2,1310.9,33.4z"/>
		<path class="st54" d="M1226,31.2c-0.5-2.1-0.9-4.1-1.4-6.2C1228.4,25.5,1228.6,26,1226,31.2z"/>
		<path class="st21" d="M1219.1,32c1.2-0.8,1.2-2,1.1-3.3c0.5,0.1,0.9,0.2,1.3,0.4c0,2.3-0.1,4.5-0.1,6.8c-0.3,0.4-0.7,0.6-1.2,0.5
			c-0.4-1-0.8-2-1.2-3c-0.4-0.3-0.5-0.7-0.4-0.9C1218.8,32.2,1219,32,1219.1,32z"/>
		<path class="st55" d="M1192.6,33.2c0.1-1.9,0.1-3.8,0.2-5.7c0.4,0.2,0.9,0.3,1.3,0.5c1.5,2.3,0.9,4.6,0.3,7
			c-0.1,0.4-0.2,0.8-0.2,1.3c-0.4,0.3-0.8,0.4-1.3,0.3C1192.8,35.4,1192.7,34.3,1192.6,33.2z"/>
		<path class="st56" d="M1310.6,36.8c0.1-0.7,0.3-1.5,0.4-2.2c1.2,0.2,2.3,0.3,3-1.1c1.2,0.6,1.2,1.7,1.3,2.7
			C1313.9,37.4,1312.4,38.2,1310.6,36.8z"/>
		<path class="st34" d="M1319.5,40.4c-0.5-5.3,3.1-4.2,6.2-3.9C1323.6,37.8,1321.6,39.1,1319.5,40.4z"/>
		<path class="st57" d="M1183.8,29.2c0.1,2.3,0.2,4.6,0.3,6.9c-0.3,0.4-0.7,0.6-1.2,0.5c-0.1-1.2-0.2-2.3-0.2-3.5
			c0-0.8-0.1-1.6-0.1-2.4C1182.9,30.3,1183.3,29.7,1183.8,29.2z"/>
		<path class="st58" d="M1310.9,33.4c-1-1.6-2-3.1-3-4.7c0.6-1.5,1.8-1.5,3.1-1.1C1310.9,29.5,1310.9,31.5,1310.9,33.4z"/>
		<path class="st59" d="M1194.4,35c-0.1-2.3-0.2-4.7-0.3-7c0.5,0.4,1.1,0.7,1.6,1.1C1195.5,31.1,1196.6,33.4,1194.4,35z"/>
		<path class="st60" d="M1309.8-20.3c0,0.7,0,1.4,0,2.2c-0.5,12.3-5.9,19.3-14.9,19.3c-8.3,0-14.2-7.3-15.2-18.6
			c-0.4-4.6,0-9.1,1.7-13.4c2.4-6,6.5-10,13.5-9.9c7,0.1,12,4,13.9,11.3c0.8,3,0.9,6.1,1.3,9.2C1310-20.3,1309.9-20.3,1309.8-20.3z"
			/>
		<path class="st8" d="M1223-99.3c-0.1,0.5-0.1,1-0.2,1.5c-2,1.9-4.5,2-7.1,2c-2.5-0.1-5.2,0.1-7.1-2c-1.7-1.1-1.4-2.8-1.3-4.5
			C1211.9-97.9,1218.2-102.2,1223-99.3z"/>
		<path class="st61" d="M1208.7-97.8c2.4,0,4.8,0,7.2,0c1.2,3.4-1.1,5.5-3,7.5c-7.5,7.7-14.9,15.5-22.9,22.7c-2.9,0-5.7,0-8.6,0
			c7.6-7.6,13.9-16.6,22.5-23.2C1206.2-92.6,1207.5-95.2,1208.7-97.8z"/>
		<path class="st62" d="M1222.9-93.4c0.5,14.6-11.1,26.1-25.8,25.8c-0.8-2.2,0.7-3.7,1.9-5.1C1205.7-81.1,1213-88.8,1222.9-93.4z"/>
		<path class="st63" d="M1222.9-93.4c-8.9,8.3-19.2,15.2-25.8,25.8c-2.4,0-4.8,0-7.2,0c1.2-5.4,6.3-7.6,9.4-11.4
			c5.3-6.4,12.9-10.9,16.5-18.7c2.3,0,4.7,0,7,0C1222.9-96.3,1222.9-94.9,1222.9-93.4z"/>
		<path class="st64" d="M1250.6,29.3c3.2,1.9,3.2,3.3,0,5.2C1250.6,32.8,1250.6,31.1,1250.6,29.3z"/>
		<path class="st65" d="M1319.9,30.5c1.8-1.1,3.5-1.2,5.1,0.3c0,2-0.5,3.9-2.8,3.6C1320.4,34.3,1319.1,32.8,1319.9,30.5z"/>
		<path class="st65" d="M1219.1,32c-0.3,0.4-0.3,0.9-0.1,1.4c-2.7,1.7-2.7,1.7-3-2.6C1217.4,30.5,1218.6,30.4,1219.1,32z"/>
		<path class="st66" d="M1303.7,34.8c-0.9,0-1.9,0-2.8,0.1c-0.7-1.7-1.6-3.5,0.3-5.1c1.2-1,2.1-0.2,2.9,0.7
			C1304,31.9,1303.8,33.3,1303.7,34.8z"/>
		<path class="st67" d="M1197.7,29.3c0.4,0.9,0.7,1.9,1.1,2.8c-0.1,1.1-0.2,2.2-0.5,4.6C1196.6,33.4,1197,31.3,1197.7,29.3z"/>
		<path class="st68" d="M1283.8,29.6c4.1,0.1,3.1,2.7,2.5,5.2c-0.9,0-1.7-0.1-2.6-0.1C1282.2,32.9,1281.7,31.2,1283.8,29.6z"/>
	</g>
</g>
<g id="g8291_1_" transform="matrix(0.42880951,0,0,0.42880951,718.07318,1089.2118) ">
	<path id="path28-1_1_" class="st69" d="M2258.6-2536.4c0-98.3,5.6-177.9,129.8-177.9c71.6,0,129.8,79.6,129.8,177.9
		c0,98.3-61.4,177.9-133,177.9C2313.6-2358.5,2258.6-2438.2,2258.6-2536.4"/>
	<path id="path30-0_1_" class="st70" d="M2459-2626.6l1.9,72.7c0,0,24.8-16.2,26.3,9c1.9,36.7-23.9,21.3-23.9,21.3
		s6.6,55.3,26.8,103.4c32.2-52,101.6-272-33.4-329.4c-113.7-48.1-189.5,25.5-199.5,131C2354.5-2595,2459-2626.6,2459-2626.6"/>
	<path id="path32-96_1_" class="st70" d="M2450.5-2664.8c36.8-26.7,141.5-28.6,93.8,111.8c-32.9,96.5,48.7,171.6,119.3,106.4
		c-121.8-43.6,16.6-188.4-75-268.4C2519.4-2775.4,2450.5-2664.8,2450.5-2664.8"/>
	<path id="path34-8_1_" class="st69" d="M2113.2-2406.3c-21.9,18,5.8,48.7,6.1,48.7l26.3-22.8c0,0-2.2-7.5-6.3-14.7
		c-0.2-0.6-0.5-1.5-1-2.1c-6.8-12.9-26.8-58.3-34.1-54.1c-5.1,3,5.6,24.3,15.1,41.8C2117.3-2409,2115.4-2408.1,2113.2-2406.3"/>
	<path id="path36-7_1_" class="st70" d="M2402.8-2536.7c0-14.7,4.1-22.5,9-22.5s9,7.8,9,22.5c0,14.4-3.9,22.5-9,22.5
		C2406.9-2514.2,2402.8-2522,2402.8-2536.7"/>
	<path id="path38_1_" class="st70" d="M2286.3-2536.7c0-14.7,4.1-22.5,9-22.5s9,7.8,9,22.5c0,14.4-3.9,22.5-9,22.5
		C2290.5-2514.2,2286.3-2522,2286.3-2536.7"/>
	<path id="path40-7_1_" class="st71" d="M2391.1-2455.9h-64.8c0,21.9,14.6,40,32.4,40S2391.1-2433.9,2391.1-2455.9"/>
	<path id="path42-2_1_" class="st69" d="M2416.6-2407.2H2363v61.9l26.8,74.8l26.8-74.8V-2407.2"/>
	<path id="path44-9_1_" class="st72" d="M2416.6-2345.3l-27,74.8l-26.8-74.8l-59.9,21.6l11,178.5l-20.2,87.2h198.8l-22.7-87.2
		l11.4-174.6L2416.6-2345.3"/>
	<path id="path46-0_1_" class="st73" d="M2362.8-2345.3l26.8,74.5l26.8-74.8l11.9,4.8l-38.7,101.6l-38.5-101.9L2362.8-2345.3"/>
	<path id="path48-9_1_" class="st73" d="M2416.6-2345.3l-19,53.2l19-3.9l16.6,9.9l-4.6-54.4L2416.6-2345.3"/>
	<path id="path50-4_1_" class="st73" d="M2362.8-2345.3l19,53.2l-19-3.9l-16.6,9.9l4.9-55L2362.8-2345.3"/>
	<path id="path52-5_1_" class="st74" d="M2381.8-2211.5c0-5.4,3.4-9.6,7.8-9.6s7.8,4.2,7.8,9.6c0,5.4-3.4,9.6-7.8,9.6
		S2381.8-2206.1,2381.8-2211.5"/>
	<path id="path54-4_1_" class="st74" d="M2381.8-2153.8c0-5.1,3.4-9.6,7.8-9.6s7.8,4.2,7.8,9.6c0,5.4-3.4,9.6-7.8,9.6
		S2381.8-2148.4,2381.8-2153.8"/>
	<path id="path56-9_1_" class="st74" d="M2381.8-2095.8c0-5.4,3.4-9.6,7.8-9.6s7.8,4.2,7.8,9.6c0,5.4-3.4,9.6-7.8,9.6
		S2381.8-2090.4,2381.8-2095.8"/>
	<path id="path62-0_1_" class="st72" d="M2340.7-2312.5l-37.8-11.1c-89.1,93.8-152.7-58.9-152.7-58.9l-33.1,29.5
		C2224.5-2147.5,2340.7-2312.5,2340.7-2312.5"/>
	<path id="path64-8_1_" class="st74" d="M2140.4-2322.7c1,2.4,3.2,3.3,5.1,2.1c1.9-1.2,2.7-3.9,1.7-6.3c-1-2.4-3.2-3.3-5.1-2.1
		C2140.2-2327.9,2139.5-2325.1,2140.4-2322.7"/>
	<path id="path66-8_1_" class="st74" d="M2132.9-2335.7c0.7,2.4,3.2,3.3,5.1,2.1c1.9-1.2,2.7-3.9,1.7-6.3c-1-2.4-3.2-3.3-5.1-2.1
		S2131.9-2338.1,2132.9-2335.7"/>
	<path id="path68-0_1_" class="st74" d="M2125.3-2348.3c1,2.4,3.2,3.3,5.1,2.1c1.9-1.2,2.7-3.9,1.7-6.3c-1-2.4-3.2-3.3-5.1-2.1
		C2125.1-2353.4,2124.4-2350.7,2125.3-2348.3"/>
	<path id="path74_1_" class="st72" d="M2481-2320l-2.9,46.9c100.8,95.3-6.1,198.4-6.1,198.4l31.2,32.5
		C2638.8-2220.6,2481-2320,2481-2320"/>
	<path id="path82-3_1_" class="st75" d="M2101.7-1608.6c-23.4,0-42.4-23.1-42.4-52s19-52.3,42.4-52.3h47.3v55.9h499.8v-55.9h45.8
		c23.1,0,42.1,23.4,42.1,52.3s-19,52-42.1,52H2101.7"/>
	<path id="path84-5_1_" class="st76" d="M2116.8-2076.6l562.4,0.3v36.7l-562.4-0.3V-2076.6"/>
	<path id="path86-9_1_" class="st77" d="M2679.2-2076.6h-168.8v36.7h168.8C2679.2-2039.9,2679.2-2076.6,2679.2-2076.6z"/>
	<path id="path88-1_1_" class="st76" d="M2648.8-2039.9H2149v383.2h499.8V-2039.9z"/>
	<path id="path90-9_1_" class="st77" d="M2648.8-2039.9h-169v383.2h169V-2039.9z"/>
	<path id="path92-0_1_" class="st77" d="M2149-1982.8v-57.1h330.8v57.1L2149-1982.8"/>
	<path id="path94-8_1_" class="st78" d="M2648.8-1831.9l-169-150.9l0,0v-57.1h169V-1831.9"/>
</g>
<g id="g4340_1_" transform="matrix(0.16635406,0,0,-0.16635406,549.88896,1698.5949) ">
	<path id="path16-0_1_" class="st79" d="M1903.1,10065.4l-181.4,4.2c1.6,181.8-148.5,351.6-100.1,491.4
		c51.6,149.1,261.9,239.2,382.5,57.4C2160.6,10383.1,1902.3,10255.3,1903.1,10065.4"/>
	<path id="path18-5_1_" class="st80" d="M1853.3,10066.6l-75.6,1.5c-2.9,37.3-7.3,74.8-8.9,112.4c-2.1,53.2-5,106.4-8.1,159.6
		c-1.6,25.5-4.2,51.7-4.2,77.2c0,13.8,1.8,27.4,3.6,41.2c2.1,15,9.6,20.7,14.6,4.5c3.4-11.4,6-23.1,8.3-35.2
		c2.9-13.5,5-26.8,5.2-40.6c0-2.4,0.5-4.5,0.8-6.6c-0.3-10.5-0.3-19.5-0.3-24.3c0.3-7.8,10.4-11.7,13.3-3.9
		c3.9,10.8,3.9,23.7,2.3,37c0.5,6.3,1.3,12.3,2.1,18.3c1,7.2,8.3,59.8,18.2,35.8c8.1-19.8,17.7-53.8,17.7-81.5
		c-1.3-9-2.6-18.3-4.4-27.7c-1.6-8.7,9.6-14.7,13-6c0,0.9,0.3,1.5,0.5,2.1l0,0v0.3c2.6,7.5,3.6,15.9,3.9,24.3
		c2.1,15.6,4.2,31.3,7.6,46.3c2.9,13.2,6.8,25.5,11.2,38.2c2.9,7.8,13.3,33.7,19.8,13.2c12-37.6,8.1-76.3,5.2-115.4
		c-4.4-56.2-15.6-110.9-25.5-166.2c-4.4-24.6-10.4-49.3-15.1-73.9C1857,10087.6,1855.9,10076.5,1853.3,10066.6L1853.3,10066.6z
		 M1719.9,9973.4c-34.9-27.4,8.3-46.6,8.1-46.6l31.5-3l28.9-37.3l46.9,1.2l28.9,36.7l37.5,0.9c32.6,18.9,2.6,41.8,2.6,41.8
		c29.4,20.4-0.8,41.8-0.8,41.8c32.3,35.2-1,56.8-1,56.8l-34.7,0.9c1.8,9.9,2.9,19.8,4.2,27c6.5,33.7,13,67.6,19.8,101.6
		c13.3,67,27.4,139.2,24.8,208.6c-0.5,15-6.3,87.2-32.6,76.3c-17.2-6.9-22.4-31.6-27.9-49.6c-2.6-8.1-4.4-16.2-6.3-24.3
		c-0.3,1.2-0.5,2.7-0.8,3.9c-3.1,15.6-9.6,57.1-26.6,62.2c-14.1,4.5-22.1-11.1-27.1-32.5c-2.6,13.5-5.7,27.7-11.2,39.7
		c-4.2,8.7-12.8,22.5-22.9,15.6c-15.1-9.9-16.2-33.7-17.7-51.7c-3.1-34.3,1-69.1,2.9-103.4c1.8-34.9,3.1-69.4,5.2-104
		c3.4-55.9,9.1-111.8,12.5-167.7l-42.5,0.9c-31.8-20.1-1.3-56.2-1.3-56.2C1692.3,10003.5,1719.9,9973.4,1719.9,9973.4"/>
	<path id="path20-40_1_" class="st73" d="M1848.6,10874.2L1848.6,10874.2L1848.6,10874.2L1848.6,10874.2"/>
	<path id="path22-2_1_" class="st73" d="M1849.7,10916c0,0.3,0.3,0.3,0.3,0.3S1849.7,10916.3,1849.7,10916z M1840.6,10856.7
		c1-0.6-2.9-0.3-2.1,1.2l3.1-0.3c2.6,0.3-1.3,0.9,3.1,0.9c0-0.3-2.1-0.6-1-0.9l0.8,0.3c0.3-0.3,6-0.3,2.6-0.9c-1.3-0.3-1.6,0-3.1,0
		c-0.5-0.6-2.1-0.9-2.3-1.2c3.1,0,0.3-0.9,3.6-0.3c-2.1,0.3-1.8,1.2,1.3,1.5c3.9-0.3-0.5,0.3,3.4,0.6c0-0.6,3.6-0.6,6.3-0.6
		c0.3,0-1-0.3-1.3-0.3c-2.3-0.3-2.3,0-4.7,0c0.8-0.6-0.5-1.2-2.9-1.5c1,0,3.4,0,3.6,0.3c-0.8-0.6-0.5-1.5,0.3-2.1
		c-3.4,0.3-1.6-0.6-3.1-0.6c1.3,0,2.6,0,3.9,0c-1.8-0.3,2.1,0.3,2.1-0.3c-1.8-0.3-3.1-0.9-3.6-1.5c2.9-0.6,0-1.5,0-2.1
		c1.6-0.3,5,0,5.5-0.3c0-0.3-3.6,0.3-2.1-0.3h0.8c-0.8,0,2.3-0.9-2.6-1.2l3.6,0.3c0.5,0-0.5-0.3-0.8-0.3c1.3,0,2.3-0.3,3.1,0
		c2.6-0.3-0.5-0.9-0.5-1.2l-2.1,0.3c-1.6-0.6,0.5-1.2-0.3-1.8h2.1l-1.3-0.3c1.8,0,2.9,0,2.3-0.3l4.7,0.9c-1.3,0-2.6-0.6-4.7-0.3
		c-1.8,0.3-1.3,0.9,0.8,0.9c0.3,0-0.3,0-1-0.3c2.9,0,2.6,0.3,4.7,0.6l0.3-0.3c1,0.3,1.3,0.6,1.3,0.9c-1-0.3-1.8,0-2.6,0
		c2.6,0,3.4,0.3,2.6,0.9c-3.1,0.3,1.8,0.9,1,1.5c-2.6-0.3-4.7-0.6-5.7-0.9c-1.3,0.3,0,0.3-1.3,0.6c2.1,0.3,5,0.6,6.3,0.9h-1.8
		c1,0.3,3.9,0.3,3.4,0.9c-1,0.9-1,1.8-1.3,2.4h-1.8c4.2,0.3,1.6,1.2,3.4,1.8c-1.8,0.9,1.8,2.1-1.6,2.4c1.3,1.5,2.9,3,2.1,4.5
		l-2.9-0.3c2.1,0-1.8,0-1.3,0.3c2.3-0.3,2.9,0.3,4.7,0.6c-2.3,0.9,0,1.8,2.1,2.4h-1.8c3.6,0.6,0.3,1.2-0.3,2.1c-0.8,0-2.6,0-2.3,0.3
		c3.1,0.6,3.1,0.9,5,1.5c0,0.6-0.8,1.2-2.1,1.8c4.4,1.8,1.6,3.6,4.2,5.4h-2.3c4.7,1.8,0.3,3.9,2.9,5.4l-3.9-0.3
		c-1.3,0.3,0.8,0.9,3.6,0.9c-1,0.6,1.8,1.2-1.3,1.5c-0.8,0.3,1.8,0.6,2.3,0.9c-1.3,0.9-1,1.5-0.5,2.1c-0.8-0.3-2.1-0.3-2.3,0
		c1,0.3-1,1.2,3.6,0.9c-2.9,1.2,2.1,2.4-1.6,3.3c1.3,0,1.6,0.3,2.3,0.3c0,0.9-2.6,1.8-0.5,2.4c-0.8,0-2.1-0.3-2.3,0
		c0.5,0.3,1.6,0,2.3,0.3c2.3,1.2-2.3,2.7-1.8,3.9c2.3,2.1,1,4.5,1.6,6.6h-1c3.6,0.9-3.6,1.8,1.8,2.4c-1,0.3-0.5,0.6-2.3,0.6
		c2.3,0.3-1.6,1.2,0.3,2.1c-1.8,0.9,0.8,1.5-1,2.4c-0.3,0-0.5-0.3-1.6-0.3c-1.8,0.3,3.9,0.9-0.5,0.9c0,0.3,2.3,0,2.1,0
		c-1.8,1.8,1,3.9,2.1,6c-2.6,1.5-7.6,0-4.2,1.2c-0.8,0,1.8,0,0.8,0c1.3,0.3-5,0.6-2.6,0.9c2.6,0,1.6,0.3,3.1,0.3
		c-1.6,0.9-4.2,1.2-2.1,1.8h-1.6c3.9,0.6,1.8,1.8,6.5,2.4c0.8,4.5,3.4,8.7,3.9,13.2c-0.8,4.2,1.3,8.4-1.3,12.9
		c-3.6,0.9-3.6,0.9-2.1,2.1c-0.5,0-0.8,0-1.3,0c3.1,0,0.5,0.6,3.4,0.9c-0.5,1.5,0.3,3,0.3,4.8c-0.3-0.3-2.9-0.3-2.6,0l2.1,0.3h-0.8
		c0.5,0.3,2.1,0.6,3.1,0.3c2.6,4.2-3.6,8.1-2.9,12.3c-1.3,0.9,0,2.1,0.5,3.3c-4.2,3-7.6,5.7-4.7,9c0,0-8.1-0.6-9.9-1.8
		c-7.3-1.8,0.3-3.9-4.4-5.7c-0.3,0,4.2,0.3,3.1-0.3c-5.7-1.8-2.3-4.5,2.1-6.6h1c0.8-0.6-2.9-1.2-2.3-1.5c0.8,0,1,0,2.1,0
		c-2.1,0-1-0.6-2.6-0.9c0.8,0,2.6,0,3.6-0.3l-2.6-0.3c-6-0.9,0.5-1.8-2.6-2.7h1.6c-3.9-1.5-3.1-3.3-4.4-5.1c1,0,2.6,0,3.6,0
		c-2.6-0.3-3.4-0.9-3.9-1.2c2.6,0-2.6-0.6-1-1.2h0.5c-2.9-0.3,1.6-0.6-1.8-0.9l2.1-0.3c-3.9-0.3,2.1-0.6,0-0.9h-0.8
		c-1-0.6,1-0.6,0.3-0.9h0.5c-1-0.9,1.3-1.2-1.8-1.2c2.3-0.3,1,0.6,4.7,0.3c-3.1-2.4-2.6-4.8-2.6-6.9c1.3,0,1.8-0.3,2.9-0.3
		c-0.5-0.3-0.5-0.9-2.1-1.2c0.3,0,1.6-0.3,1.8-0.3c1-0.3-3.4-0.6-2.1-0.9c0.8,0.3,1.8,0.3,2.9,0.3c-2.6-0.6-2.1-1.2-2.9-1.5
		c0.5,0.3,0.8,0.3,1.8,0.3c-2.6-0.3,0.8-0.9-1-1.2l1.8,0.3c2.3-0.6-3.6-0.3-2.3-0.9h2.1c-3.1-0.6-2.1-1.5-3.1-2.1c0.3,0,0.8,0,0.8,0
		c-0.5-0.6,0.5-1.2-0.8-1.8c0.8-0.3,4.2,0,3.6-0.6c-3.6-0.3-1.6-1.2-5.5-0.9c0.5-0.6,2.1-1.5,0.8-1.8c1.3,0.3,4.4,0,4.7,0.3l2.1-0.3
		c1.3,0-0.5,0.3,1.3,0.3c-0.3-0.3-1.6-0.9-1-1.2c-2.3-0.3-6.3-0.9-6.8-1.5c1.3,0.3,3.9-0.3,4.4,0l-6.8-0.9c-0.3-0.3,2.9,0,1.8-0.3
		c-1,0-1.6-0.3-2.3-0.3c0.5,0-0.8-0.9,2.6-0.9c1.6,0,0.8,0.6,2.1,0.3c0-0.6-1.3-0.6-1.3-0.9h0.5c0.5-0.3-1.6-0.9-3.4-0.6
		c-0.3,0.3,2.1,0,1,0.3c-2.1-0.3-2.6-0.9-2.6-1.2c0.5,0.3,1.3,0.3,2.3,0.3c-2.6-0.6-3.6-1.2-4.7-1.8c0.8,0,1.8,0.3,2.1,0.3
		c2.1-0.9-2.9-1.8,0-2.4c-0.5,0-2.1,0-1.8,0c0.3-0.3,2.6-0.3,1.8-0.6c1.6,0-0.3-0.3-0.8-0.6c-0.8,0,0,0,0.5,0
		c-1-0.3-2.6-1.8-0.8-2.4c-1,0-3.4-0.3-3.4-0.6h2.1c0.3,0,0.5-0.3,0.5-0.3c-0.3,0-0.3,0,0,0c0,0,0-0.3,0.3-0.3c0,0,0,0.3,0.3,0.3
		s0.3,0,0.3,0s-0.3-0.3-0.5-0.3c0.3,0,0.5,0,0.8,0c-0.5,0-0.8,0-0.8,0c-0.5-0.3-1.6-0.6,0-0.9c-0.3,0,3.1,0.3,2.9,0
		c-0.5-0.6-1-0.3-1.8-0.6l-0.8-0.3c-2.1,0,0.3-0.6-2.1-0.3c1.6,0-1.3-0.6,2.3-0.6h2.9c-0.3-0.3-2.9-0.3-4.2-0.6c0.3,0,0.8,0,1.3,0
		c-4.2,0,0.5-0.6-2.9-0.9c1.6-0.6,0.3-1.2,2.9-1.5c-1.3-0.3-2.6-0.9-1.8-1.2c0.3,0.3,0.5,0.3,1.3,0.3c1.3-0.3,0.3-0.3-0.5-0.6
		c0.5,0,2.3-0.6,3.9-0.9c-1.3-0.3-3.6-0.3-5-0.3c4.2-0.3-2.9-1.2,1-1.5c0.5,0.3,2.1,0.6,3.1,0.3c4.2-0.3-3.1-0.6-1-1.2h-3.4
		c2.1-0.3-2.1-0.9,1.6-0.9c-1.3-0.3,1-0.6-2.3-0.6c2.9-0.9-1.6-2.1,4.4-2.7c-0.8,0,0-0.3-1.8-0.3c-2.1,0,1.3,0.3,0,0.3
		c-0.3-0.3-1-0.3-1.6-0.3c0.8-0.3,1-0.6,3.9-0.3c2.1-0.6-5.7-0.6-4.4-1.5c1.6,0,2.1,0,1.8-0.3l-2.3-0.6c0.5-0.6,3.1-0.3,5.5-0.3
		c-0.5-0.3-0.3-0.6-2.1-0.9l2.9-0.3c-2.3,0.3-1.6-0.3-2.1-0.3h0.5c1,0,0.3-0.3,0-0.6c-1.6,0-2.1,0.3-2.6,0.6c-1-0.3-0.8-0.3-2.1-0.6
		c2.3,0.3,1.6-0.3,1.8-0.6c0.5,0-2.1-0.3-2.1-0.3c1,0,0-0.6,1.8-0.3c0.5,0-1,0,0,0.3c1-0.3,3.1-0.3,1.6-0.6c-1-0.3-4.7,0-3.1-0.6
		c0.5,0,1.6,0.3,2.3,0.3l1.3-0.3h-2.1c0.5,0,0.8,0,1,0c-2.1-0.3-0.5-0.9-3.1-0.9c0,0,1.6-0.3,1.8-0.6h0.3c1.3-0.3,0.3-0.6-1-0.9h0.5
		c0.3,0,0-0.3-1.3-0.6c1.8-0.6,8.1-0.3,5.5-0.6c0-0.6-3.9-0.9-5.2-0.6c1.6-0.6-2.1-1.5,1.3-2.1c-0.8,0-1.3,0-1.8-0.3
		c0.8-0.9-2.6-2.1,1.6-3c1,0.3,2.1,0,3.4,0c-1.8-0.3,2.1-0.3-1.3-0.3c-1.8,0-2.9,0-3.6,0.3c-1-0.6-1-1.5,0.8-1.8c-1,0.3-1.6,0-2.1,0
		c2.9,0.3,3.4-0.3,2.3-0.6h-1.8l1.8-0.3c-0.5-0.3-3.9-0.3-2.1-0.6h2.1c-1.6-0.3-4.2-0.9-2.6-1.2l2.6-0.3c-0.3-0.3-1.8-0.6-2.6-0.3
		c1.6-0.6,1.8-0.9,4.2-1.2c-5.7-1.2-6-3-5.5-4.2h1.3c1.3-0.3-2.6,0-1.6-0.3c1.3,0,2.9-0.3,4.4,0c1.3-0.3-2.6-0.6-3.1-0.9
		c-1.8,0,1.3,0.3-1,0.3c-0.5-0.3,1.6-0.9-1.3-0.9c1-0.3,3.1,0,4.2,0l-1.3-0.3c3.4-0.3,6,0.9,9.9,0.6l-0.5-0.3c2.9-0.3,3.1,0.6,4.2,0
		c-1.3-0.3-5.2-0.6-6.5-0.3c-0.8-0.9-6.8-0.6-6.5-1.2c1.6-0.3,0.3,0.3,2.6,0.3c2.1-0.3-1.3-0.6-0.5-0.9c-1,0.3-3.9,0-4.4-0.3
		c1.3-0.3,2.6,0.3,2.9-0.3c-1.6-0.3-2.9-0.6-3.9-0.3c-3.6-0.3,1-0.6-1.8-0.9c2.6-0.3,6,0.6,7.3,0c-2.6,0.3-3.4-0.6-7-0.3
		c0.8-0.3,2.6-0.3,4.2,0c1.6-0.3-4.4-0.9,0.5-0.9l-2.6-0.3c0.8,0,1.6,0,2.9-0.3c0.3-0.3-3.4-0.9,0.5-0.9c-0.5-0.3-0.3-0.9-2.9-0.6
		c-1.6,0.3,2.1,0.3-1.6,0.6c2.9-0.3-0.3-0.6-1.3-0.9h1.6c-0.5-0.3-0.3-0.6-1.8-0.6c0.8,0.3,1.8,0,2.1,0l-2.3-0.3
		c-1-0.6,3.9,0,3.4-0.6l1.8,0.3c-0.3-0.3,1.8-0.3,1-0.6c-2.1,0-4.4-0.3-6-0.3c-0.8-0.3,2.3,0,0.3-0.3l2.3,0.3c0.8,0,3.4-0.3,3.4-0.6
		c-0.5-0.3-3.6-0.6-4.7-0.3c-0.3-0.3,1-0.6,2.6-0.3c-0.5-0.3-2.1,0-3.4-0.3c1.3-0.3,3.1-0.6,5.2-0.9l3.4,0.3v-0.3
		c2.6,0.3,2.1-0.3,5,0c0.5-0.3-0.5-0.3-1.3-0.6c-4.4,0.6-6.3-0.6-10.4-0.6c-1-0.9,10.2-0.3,3.6-1.2c-1,0-3.1-0.3-3.4,0
		c-0.8-0.3-3.9-0.3-2.3-0.6c1.8,0.6,4.2-0.3,6.8,0.3c-1.6,0-1,0.3-0.8,0.3c1.6,0,4.2,0.3,4.2-0.3c-0.3-0.3-0.5-0.6-2.6-0.6
		c-2.3,0,0.3,0.6-2.1,0.3c-1-0.6,2.6-0.6-1.6-0.9c0.3,0.3-2.3,0.3-3.9,0.3l-1-0.3L1840.6,10856.7"/>
	<path id="path24-16_1_" class="st73" d="M1873.1,10865.2c0.3,0,0.5,0,0.5,0.3C1873.4,10865.5,1873.4,10865.2,1873.1,10865.2
		L1873.1,10865.2"/>
	<path id="path26-0_1_" class="st73" d="M1848.1,10881.1C1847.6,10881.1,1847.3,10881.1,1848.1,10881.1L1848.1,10881.1"/>
	<path id="path28-0_1_" class="st73" d="M1846.8,10863.4h1.6l-0.8,0.3L1846.8,10863.4"/>
	<path id="path30-1_1_" class="st73" d="M1846,10882.6c-0.3-0.3,1.6,0,1.6-0.3C1848.4,10882.6,1846.3,10882.6,1846,10882.6"/>
	<path id="path32-71_1_" class="st73" d="M1854.4,10892.5h2.9H1854.4L1854.4,10892.5"/>
	<path id="path34-85_1_" class="st73" d="M1636.3,10762.1c0-0.9-1.8-1.8-0.5-1.2C1636.5,10762.1,1637.1,10762.7,1636.3,10762.1"/>
	<path id="path36-4_1_" class="st73" d="M1610.7,10802.3h-0.3v-0.3L1610.7,10802.3"/>
	<path id="path38-9_1_" class="st73" d="M1633.4,10762.7c0.3,0.3,0.3,0.6,0.3,0.3C1633.7,10763,1633.4,10763,1633.4,10762.7"/>
	<path id="path40-9_1_" class="st73" d="M1594.1,10819.5c0.3,0.3,0.3,0.6,0.3,0.6C1594.1,10819.8,1594.1,10819.8,1594.1,10819.5
		L1594.1,10819.5"/>
	<path id="path42-4_1_" class="st73" d="M1571.4,10804.8L1571.4,10804.8C1571.4,10804.8,1571.1,10804.8,1571.4,10804.8
		C1571.1,10804.8,1571.4,10804.8,1571.4,10804.8"/>
	<path id="path44-341_1_" class="st73" d="M1571.4,10806.3v0.3C1571.6,10806.6,1571.4,10806.6,1571.4,10806.3z M1532.8,10863.1
		c-3.6-7.5,2.9-2.7,0.3-10.2c0-0.3,2.6,3.6,2.3,2.4c-2.3-6,1.8-5.1,6.3-3l0.5,1.2c0.8,0.6-1.3-3-0.5-3c0.5,0.6,0.5,0.9,1.3,1.8
		c-1.3-1.8,0-1.5-1-3c0.5,0.6,1.8,2.4,2.6,3l-1.6-2.4c-3.4-5.7,1.6-0.9,0.3-4.2l1,1.5c-1.3-4.2,0.5-5.1,0.8-7.5
		c0.5,0.9,1.6,2.4,2.3,3.3c-1.8-2.4-1.8-3.3-1.8-4.2c1.8,2.4-1-2.7,0.3-1.8l0.3,0.6c-1.6-2.7,1.6,1.2-0.5-2.1l1.6,1.8
		c-2.3-3.6,1.8,1.5,0.8-0.6l-0.5-0.6c-0.5-1.2,1,0.6,0.8-0.3l0.3,0.3c-0.3-1.5,1.6,0.3-0.5-2.4c1.8,1.8,0.3,1.5,2.9,4.2
		c-0.5-4.5,1.6-5.4,3.1-7.2c1,0.9,1.3,1.2,2.1,2.1c-0.3-0.9,0.3-1.2-0.5-2.7c0,0,1,1.2,1.3,1.2c1.3,0.6-1.8-3.3-0.5-2.4
		c0.5,0.9,1,1.8,1.8,2.7c-1.3-2.4-0.5-2.4-0.8-3.3c0.3,0.6,0.5,0.9,1,1.8c-1.3-2.7,1-0.3,0.3-2.1l1,1.8c1.8,1.5-2.3-3.3-1-2.7
		l1.3,1.8c-1.6-3-0.3-3-0.5-4.2c0.3,0.3,0.5,0.6,0.5,0.6c0-0.9,1.3-0.3,0.8-2.1c0.8,0.3,2.9,3.6,2.9,2.7c-2.3-3.3-0.3-2.1-3.1-5.4
		c0.8,0.3,2.3,0.6,1.8-0.6c0.8,1.5,3.1,3.6,2.9,4.2l1.6,1.5c1,1.2-0.5-0.3,0.8,1.2c0.3-0.3-0.3-1.8,0.3-1.5c-1.3-2.1-3.6-6-3.4-6.9
		c0.5,1.5,2.6,3.3,2.9,3.9l-3.6-6.6c0-0.6,1.8,2.1,1.6,1.2c-0.5-0.6-0.8-1.2-1.3-2.1c0.5,0.3,0.3-1.5,2.6,1.5c1,1.2,0.3,0.9,1.3,1.8
		c0.3-0.3-0.5-1.5-0.3-1.8l0.3,0.3c0.5,0.3-0.3-1.8-1.8-3.3c-0.3,0,1.3,1.8,0.5,1.2c-1-1.8-1-2.7-0.8-3c0.3,0.6,1,1.5,1.6,2.4
		c-1.3-2.7-1.6-3.9-1.8-5.4c0.5,0.9,1.3,1.8,1.3,2.1c2.1,1.2-0.8-3.9,1.8-1.5c0,0.6-1.6-1.8-1.3-1.5c0.5,0,2.1,2.1,1.6,1.2
		c0.8,1.2-0.3-0.6-0.3-1.2c-0.5-0.9,0-0.3,0.3,0.3c-0.3-1.5-0.5-3.9,1.3-2.7c-0.5-0.6-1.8-3.3-1.6-3.3l1.3,2.1
		c0.3,0.3,0.5,0.3,0.5,0.3l0,0c0.3,0,0.3-0.3,0.5,0c0,0.3,0,0.3,0,0.6l0,0c0,0,0-0.3,0-0.6c0,0.3,0.3,0.3,0.5,0.6
		c-0.3-0.6-0.5-0.6-0.5-0.6c-0.3-0.9-0.5-1.8,0.5-0.6c-0.3-0.3,1.8,2.7,1.8,2.4c0-0.9-0.5-1.2-0.8-2.1l-0.3-0.9
		c-1.3-1.8,0.8-0.3-1-2.1c1,1.5-0.3-1.5,2.1,1.5l1.8,2.4c0-0.3-1.6-2.7-2.3-3.9l0.8,0.9c-2.9-3.9,0.5-0.3-1.3-3.3
		c1.3,0.9,1-0.9,2.9,1.2c-0.5-1.2-1-2.7-0.3-2.4c0.3,0.6,0.3,0.6,0.8,1.5c1,0.9,0.3,0,0-0.9c0.3,0.6,1.8,1.5,3.1,2.7
		c-0.5-1.2-2.3-3.3-3.1-4.5c3.1,3.6-1-3,1.8,0c0.3,0.6,0.8,2.4,1.8,3c3.1,3.3-1.6-3,0.3-1.8l-2.3-3c1.6,1.8-0.8-2.1,1.6,0.9
		c-0.8-1.2,1.3,0.6-1-2.4c2.6,1.8,0.5-3,5,1.8c-0.3-0.6,0.5-0.3-0.8-1.8s0.5,1.5-0.3,0.3c0-0.3-0.5-1.2-0.8-1.5
		c0.5,0.6,1,0.6,2.6,3.3c1.8,1.5-3.4-5.4-1.8-4.8c0.8,1.2,1.3,1.5,1.3,1.2l-1.3-2.4c0.8,0,2.3,2.4,3.9,4.5c0-0.6,0.3-0.9-0.8-2.4
		l2.1,2.4c-1.6-1.8-0.8-1.5-1-2.1l0.3,0.6c0.8,0.9,0.5,0,0.5-0.3c-1-1.2-1.6-1.5-2.1-1.8c-0.8-0.9-0.3-0.9-1-2.1
		c1.6,2.1,1.6,1.2,1.8,1.2c0.5,0.3-1-2.1-1-2.1c0.8,1.2,0.3,0,1.3,1.5c0.3,0.6-0.8-0.6-0.3,0.3c0.8,0.6,2.1,2.4,1.3,0.9
		c-0.5-1.2-3.1-3.9-1.8-3c0.3,0.6,0.8,1.2,1.3,2.1l1,0.6l-1.3-1.8c0.5,0.6,0.5,0.6,0.8,0.9c-1.3-2.1,0-0.9-1.6-3.3
		c0-0.3,1.3,0.9,1.6,0.9v0.3c1,0.9,0.8,0,0-1.5l0.3,0.3c0,0,0.3-0.6-0.5-1.8c1.3,1.2,5.5,6.9,3.9,4.2c0.3-0.3-2.1-3.6-3.1-4.8
		c1.3,0.6-0.3-3,2.3-0.6c-0.5-0.9-0.8-1.2-1-1.8c1.3,0,0-3.6,3.4-0.6c0.3,1.2,1.3,1.8,2.1,3c-1-1.8,1.6,1.5-0.5-1.5
		c-1.3-1.8-1.8-2.7-2.6-3c-0.3-1.2,0.5-1.8,1.8-0.6c-0.8-0.6-1-1.2-1.3-1.8c1.8,2.7,2.6,2.7,2.1,1.5l-1.3-1.8l1.3,1.5
		c-0.3-0.6-2.3-3.3-1-2.1l1.3,1.8c-0.8-1.5-2.1-4.2-0.8-3l2.1,2.1c0-0.3-0.8-1.8-1.6-2.4c1.6,0.9,1.8,0.9,3.6,2.7
		c-3.1-5.7-2.1-7.2-0.8-7.8l0.8,1.2c1,0.9-1.6-2.1-0.8-1.5c0.8,1.2,2.1,2.4,2.9,3.9c1.3,0.9-1-2.4-1.3-3.3c-1-1.8,0.8,1.2-0.8-0.9
		c-0.3-0.6,1.6,0.6-0.3-1.8c1,0.6,2.1,2.7,2.9,3.6l-0.8-1.5c2.3,2.7,3.1,5.7,6,9v-0.6c2.1,2.4,1.6,3.6,2.9,3.9
		c-0.8-1.5-3.1-5.1-4.2-6c0-1.2-4.2-6-3.4-6.3c1.3,1.5,0,0.9,1.6,2.7c1.6,1.5-0.5-1.5,0.3-1.2c-1-0.6-2.6-3.3-2.9-3.9
		c1,0.9,1.6,2.4,2.1,2.4c-0.8-1.5-1.3-3-2.3-3.6c-2.1-3.3,1,0.6-0.5-2.1c1.8,2.1,3.4,5.7,4.7,6.3c-1.6-2.1-1.6-3.3-4.2-6.3
		c0.8,0.6,2.1,2.1,2.9,3.6c1,1.2-2.6-4.5,0.8-0.3l-1.6-2.4c0.5,0.6,1,0.9,2.1,2.1c0.3-0.3-1.6-3.6,0.8-0.3c-0.3-0.3,0.3-0.6-1.6-2.7
		c-1.3-1.2,1,2.1-1.6-0.9c2.1,2.4,0.3-0.9-0.3-1.8l1,1.2c-0.3-0.6,0.3-0.6-0.8-2.1c0.5,0.6,1.3,1.5,1.6,1.8l-1.3-2.1
		c-0.3-1.2,2.6,3.3,2.6,2.4l0.8,1.8c-0.3-0.3,1.3,1.5,1,0.6c-1.3-2.1-2.6-4.2-3.6-5.7c-0.3-0.9,1.6,2.1,0.5,0l1.3,2.4
		c0.3,0.6,2.3,2.7,2.6,2.4c-0.3-0.6-1.8-3.6-2.9-4.2c0.3-0.3,1.3,0.6,2.1,2.1c-0.3-0.9-1.6-1.8-2.1-3.3c1,1.2,2.6,2.4,4.2,3.9
		l1.8,3.3l0.3-0.3c1.3,2.7,1.3,1.8,3.1,4.5c0.3,0.3-0.3-0.6-0.5-1.5c-3.4-3.6-3.6-6-6.5-9.6c0-1.5,7,8.7,3.4,2.4
		c-0.5-0.6-1.8-2.4-2.1-2.7c-0.5-0.9-2.3-3.3-1-2.4c1,1.8,3.1,3.3,4.4,6c-1-1.2-1-0.6-0.8-0.3c1.3,1.2,2.9,3.6,3.1,3.3
		c0-0.6,0.3-0.9-1.3-2.7c-1.6-2.1,0,0.3-1.6-1.8c0-0.9,2.3,2.1-0.3-1.8c0,0.6-1.8-1.5-2.9-3l-0.3-1.2l1,1.5c1.3,0.6-1.8-2.7-1-2.7
		l2.3,2.7c1.8,2.4-1.3-0.6,1.6,3.3c0.3,0-1-2.1,0-1.5l0.3,0.9c0.3,0,4.2,5.1,2.3,1.5c-0.8-1.5-1-1.5-2.1-3c0-0.9-1-2.4-0.8-3
		c2.1,3,0.8-0.3,2.6,3c-1.6-1.5-2.1-0.9-0.3,2.1c2.9,3-0.5-0.3,1.8,3.3c0.5-0.3,3.1,3,4.7,5.1c0.3,0-0.3-1.2-0.5-1.5
		c-1.3-2.1-1.6-1.8-3.1-3.9c0.8,0.3,0.5-1.5-0.8-3.6c0.8,0.9,2.3,3,2.3,3.3c0-0.9,0.8-1.2,1.8-1.2c-2.3-2.7-0.5-1.8-1.6-3
		c0.8,0.9,1.8,2.1,2.6,3.3c-0.5-1.8,1.6,1.8,1.8,1.5c-0.8-1.8-1.3-3.3-1.3-4.2c2.3,1.8,1.3-1.2,1.6-1.8c1.3,1.2,3.4,4.2,3.9,4.5
		c0.3-0.3-2.3-3-1-2.1l0.5,0.6c-0.3-0.6,2.3,1.5-0.8-3l2.3,3.3c0.5,0.3,0-0.6-0.3-0.9c0.8,0.9,1.8,1.8,2.1,2.7
		c1.8,2.1,0.3-0.9,0.5-1.2l-1.6-1.8c-0.8-1.8,1-0.3,1-1.5l1.3,1.8l-0.5-1.5c1,1.8,2.3,2.7,1.3,1.2l2.6,5.1c-1-0.9-1.3-2.4-2.9-4.2
		c-1.3-1.5-1.3-0.6,0,1.2c0.5,0,0-0.3-0.3-1.2c2.1,2.4,1.8,2.7,2.9,4.5c0-0.3,0.3,0,0.3,0c0.5,1.2,0.5,1.5,0.3,1.8
		c-0.5-1.2-1.3-1.5-1.8-2.4c1.6,2.4,1.8,3.3,1,3c-2.1-2.4,0.8,2.4-0.3,2.1c-1.6-2.4-2.6-4.5-3.1-5.7c-1-0.9-0.3,0.3-1.3-0.6
		c1,1.8,2.9,4.5,3.4,6l-1.3-1.8c0.5,1.2,2.3,3.6,1.6,3.6c-1.3,0-1.8,0.6-2.6,0.9l-1.3-1.8c2.3,3.9,0,2.1,0.8,4.2
		c-1.8-1.2,0,3-2.6,0.3c-0.3,2.4-0.3,4.5-1.8,5.1l-1.6-2.7c1.3,2.1-1-1.2-1-0.6c1.8,1.8,1.6,2.7,2.6,4.5c-2.1-1.5-1,1.5-0.3,3.6
		l-1.3-1.8c1.8,3.6-0.8,1.5-1.8,1.5c-0.5-0.6-1.8-2.1-1.8-1.8c1.8,3,1.6,3,2.3,5.1c-0.5,0.3-1.6,0-2.6-0.6c1.8,5.1-1.6,3.9-1,7.5
		l-1.6-1.8c1.8,5.7-2.6,3.3-2.1,6.6l-2.3-3.6c-1-0.9,0,1.5,1.8,3.9c-1-0.6,0.5,2.7-1.8,0c-0.8-0.3,0.8,1.8,0.8,2.7
		c-1.6-0.6-1.6,0-1.8,0.9c-0.5-0.6-1.3-1.8-1.6-1.8c0.3,1.2-1.8,0,1.6,3.9c-2.6-1.5-0.3,3.6-3.4,1.2c0.8,1.2,0.8,1.5,1.3,2.4
		c-0.5,0.6-3.1-0.9-2.1,1.5c-0.5-0.3-1.3-2.1-1.6-1.8c0,0.3,1,1.2,1.3,2.1c0.5,3.3-3.6,0-4.2,1.5c0,3.9-2.6,4.5-3.9,6.3l-0.5-0.9
		c1.8,3.6-3.6-2.1-0.5,3c-0.8-0.6-0.8,0.3-1.8-1.5c1.3,2.4-2.1-0.3-1.3,1.8c-2.1-1.2-0.8,1.8-2.6,0.9c0-0.3-0.3-0.6-0.8-1.5
		c-1.3-1.2,2.1,4.2-1,0.3c-0.3,0,1.3,2.1,1.3,1.8c-2.3,0-2.1,3.9-2.9,6.3c-2.9-1.2-5-6.3-3.6-2.7c-0.5-0.9,1,1.5,0.5,0.6
		c0.5,1.5-3.6-3.9-2.3-1.5c2.1,2.4,1,1.5,2.1,3c-1.8-0.9-3.4-3-2.6-0.6l-1-1.2c2.1,4.2,0,3,2.6,7.5c-2.9,4.2-4.2,9.6-7,13.2
		c-3.9,2.4-5.5,7.5-10.4,8.4c-3.4-2.7-3.4-2.4-3.1-0.3c-0.3-0.6-0.3-0.9-0.8-1.2c2.1,3-0.3,0.9,1.6,3.6c-1.6,0.9-2.1,2.7-3.4,3.9
		c-0.3-0.6-1.8-2.7-1.8-2.4l1,2.1l-0.5-0.6c0.3,0.6,1,2.1,1.8,2.7c-1.3,5.4-8.3,3-10.9,6.6c-1.6-0.3-1.8,1.8-2.1,3
		c-5-1.2-9.1-2.1-9.6,2.7C1538,10873,1533.1,10865.8,1532.8,10863.1"/>
	<path id="path46-25_1_" class="st73" d="M1608.1,10757.3c0-0.3,0-0.3,0-0.3C1608.1,10757.3,1608.1,10757.3,1608.1,10757.3"/>
	<path id="path48-94_1_" class="st73" d="M1618,10756.7c0-0.3-0.3-0.6-0.3-0.6C1617.8,10756.4,1618,10756.7,1618,10756.7"/>
	<path id="path50-7_1_" class="st73" d="M1615.9,10753.1c0.5,0.9,0.5,1.2,0.5,0.9C1616.2,10753.7,1615.9,10753.4,1615.9,10753.1"/>
	<path id="path52-7_1_" class="st73" d="M1565.9,10809.6C1565.7,10809,1565.4,10809,1565.9,10809.6L1565.9,10809.6"/>
	<path id="path54-1_1_" class="st73" d="M1615.4,10753.4c-0.8-1.2,0.5,0.6,1.3,0.3c0.3,0.6,0.8,1.5,1.3,2.1c0,0,0,0-0.3-0.3
		c-1-0.3-2.9-2.7-3.9-4.2C1614.1,10751.3,1614.9,10752.8,1615.4,10753.4"/>
	<path id="path56-6_1_" class="st73" d="M1636,10763c-1-1.5-2.1-1.8-3.1-3.9L1636,10763"/>
	<path id="path58-8_1_" class="st73" d="M1618.3,10756.1c0.3,0.3-0.5-0.6-0.5-0.6c0-0.3-0.8-1.5-0.3-0.9
		C1617.5,10754.9,1618,10755.5,1618.3,10756.1"/>
	<path id="path60-6_1_" class="st73" d="M1614.6,10754l1,3C1614.9,10755.8,1614.6,10754.3,1614.6,10754"/>
	<path id="path62-4_1_" class="st73" d="M1610.5,10753.7c-1-0.9-1.3-1.5-1-1.8L1610.5,10753.7"/>
	<path id="path64-6_1_" class="st73" d="M1611.3,10755.8c0.3,0,0-0.9,1,0.9C1612.3,10756.7,1611.8,10756.4,1611.3,10755.8"/>
	<path id="path66-3_1_" class="st73" d="M1611.3,10755.8c0,0,0,0-0.3-0.3L1611.3,10755.8"/>
	<path id="path68-2_1_" class="st73" d="M1605.5,10756.7c0.8,0.9-0.8-1.8,0.5,0C1606,10756.7,1606.6,10757.9,1605.5,10756.7"/>
	<path id="path70-1_1_" class="st73" d="M1604.5,10758.8l1,1.5c0,0-0.3,0,0,0.3C1605,10760,1604.5,10759.1,1604.5,10758.8"/>
	<path id="path72-4_1_" class="st73" d="M1578.7,10796.6l-0.5-0.3l-0.3-0.9L1578.7,10796.6"/>
	<path id="path74-5_1_" class="st73" d="M1564.6,10809.9c0.3,1.2-1-0.9-1-1.2S1564.6,10810.2,1564.6,10809.9"/>
	<path id="path76-4_1_" class="st73" d="M1561.7,10823.4l1.8,2.4L1561.7,10823.4L1561.7,10823.4"/>
	<path id="path78-1_1_" class="st73" d="M2071.7,10728.4c-0.8,0.3-1.3,2.4-1,0.6C2071.4,10728.1,2072.2,10727.5,2071.7,10728.4"/>
	<path id="path80-6_1_" class="st73" d="M2107.9,10748.2v0.3h-0.3L2107.9,10748.2"/>
	<path id="path82-5_1_" class="st73" d="M2124.1,10763.3c0.3-0.3,0.3-0.3,0.5-0.3C2124.3,10763.3,2124.3,10763.3,2124.1,10763.3
		L2124.1,10763.3"/>
	<path id="path84-3_1_" class="st73" d="M2119.4,10796C2119.1,10796.6,2118.9,10796.6,2119.4,10796
		C2119.4,10796.3,2119.4,10796.3,2119.4,10796"/>
	<path id="path86-3_1_" class="st73" d="M2072.5,10731.4c0.3-0.6,0.3-0.6,0.3-0.3L2072.5,10731.4"/>
	<path id="path88-6_1_" class="st73" d="M2069.1,10749.8c0,0,0-0.3,0.3-0.3L2069.1,10749.8"/>
	<path id="path90-3_1_" class="st73" d="M2066.7,10752.5c0.5-0.9,0.8-0.9,0.8-0.9C2067.3,10752.2,2067,10752.2,2066.7,10752.5"/>
	<path id="path92-3_1_" class="st73" d="M2068.8,10734.4l-0.5,0.6C2068.6,10734.7,2068.8,10734.4,2068.8,10734.4"/>
	<path id="path94-2_1_" class="st73" d="M2068.6,10750.4c-0.3,0.9-1.8,3.6-3.1,5.1c0-0.6,1-1.5,1.6-2.4c-1,1.2,0.3-0.9,0.3-1.2
		c0.5-0.6,1-1.2,1.6-2.1C2068.8,10750.1,2068.8,10750.1,2068.6,10750.4"/>
	<path id="path96-2_1_" class="st73" d="M2116,10790.9c0-0.3,0.3-0.3,0.3-0.3S2116,10790.6,2116,10790.9z M2071.4,10747
		c-1.8,3-1.3,0.9-4.2,2.1c0.8-1.2,1.6-2.4,2.3-3.6c-1.3,1.2,1.3-1.8,1-2.1c-1.3,1.2-2.6,1.8-3.4,2.1c1.3-3-1-1.2-1.6-1.5
		c0.8-1.5,2.9-4.5,3.1-5.1c-0.3,0-2.1,3.6-1.6,1.8l0.5-0.6c-0.8,0.6,0.5-2.7-2.6,1.5l2.3-3c0.3-0.3-0.5,0.3-0.8,0.6
		c0.8-1.2,1.6-2.1,2.1-2.7c1.3-2.4-0.8,0-1-0.3l-1.3,2.1c-1.6,1.2-0.3-1.2-1.3-0.9l1.3-1.8l-1,0.9c1.3-1.2,1.8-2.4,1.3-2.1l3.6-3.6
		c-0.8,1.5-1.8,2.1-3.1,4.2c-1,1.5-0.3,1.5,1-0.3c0-0.3-0.5,0-1,0.6c1.8-2.7,2.1-2.4,3.4-3.9v-0.3c0.8-0.6,1-0.9,1.3-0.6
		c-0.8,0.9-1,1.8-1.6,2.4c1.8-2.4,2.6-2.7,2.3-1.8c-1.6,3,2.1-1.2,1.8,0c-1.8,2.1-3.4,3.9-4.2,4.5c-0.5,1.2,0.3,0-0.3,1.5
		c1.3-1.8,3.4-4.5,4.4-5.1l-1.3,1.8c1-0.6,2.9-3.3,2.9-2.4c0,1.5,0.8,2.1,1,2.7l-1.3,1.8c2.9-3.3,1.8-0.6,3.4-1.8
		c-0.5,2.4,2.6-0.3,0.8,3c1.8-0.3,3.6-0.9,4.4,0.9l-2.1,2.4c1.6-1.5-1,1.8-0.5,1.5c1.3-2.1,2.1-2.1,3.4-3.6c-1,2.4,1.3,0.9,2.9-0.3
		l-1.3,1.8c2.6-3,1,0.3,1.3,1.5c-0.5,0.6-1.6,2.4-1.3,2.4c2.1-2.7,2.3-2.4,3.9-3.6c0.5,0.3,0.5,1.5,0,3c4.2-2.7,3.6,0.9,6.5-0.3
		l-1.3,2.1c4.4-3.3,3.1,2.1,5.7,0.9l-2.6,3.3c-0.3,1.5,1.6-0.3,3.1-2.7c-0.3,1.2,2.1-0.9,0.3,2.1c-0.3,0.9,1.6-1.2,2.1-1.5
		c-0.3,1.8,0.3,1.8,1,1.8c-0.5,0.6-1.3,1.8-1.3,2.1c0.8-0.9,0.3,1.8,2.9-2.7c-1,3,2.9-0.6,1.3,3.3c0.5-1.2,1-1.2,1.6-1.8
		c0.8,0.3-0.3,3.3,1.6,1.8c-0.3,0.6-1.6,1.8-1.3,2.1c0.3-0.3,1-1.5,1.6-1.8c2.3-1.2,0.3,3.9,1.6,4.2c3.1-0.6,3.9,2.1,5.7,3l-0.5,0.9
		c2.6-2.7-1.3,4.5,2.6,0c-0.5,0.9,0.3,0.9-1,2.4c1.8-1.8,0,2.4,1.8,1.2c-0.8,2.4,1.6,0.6,1,2.7c-0.5,0.3-0.8,0.3-1.3,1.2
		c-1,1.8,2.9-3,0.3,1.2c0,0.3,1.6-1.8,1.3-1.8c0.3,3,3.4,1.8,5.5,2.1c-0.8,3.3-4.7,6.6-1.8,4.5c-0.5,0.9,1-1.5,0.5-0.6
		c1-0.9-2.9,4.8-1,3c1.6-2.4,1-1.2,2.1-2.7c-0.5,2.1-2.1,4.5-0.3,3l-1,1.2c3.1-3,2.6-0.6,6-4.2c3.6,2.1,8.3,2.7,11.7,5.1
		c2.3,3.6,6.8,4.5,8.1,9.6c-1.6,3.9-1.6,3.9,0.3,3.3c-0.3,0.6-0.5,0.6-0.8,1.2c1.8-2.7,0.5,0.3,2.6-2.4c0.5,1.8,2.3,1.8,3.4,3
		c-0.5,0.3-2.1,2.4-1.8,2.4l1.6-1.5l-0.5,0.9c0.5-0.3,1.6-1.5,2.1-2.7c4.7,0.6,3.4,8.7,6.8,10.8c-0.3,1.8,1.6,1.8,2.6,1.8
		c-0.5,5.7-0.8,10.8,3.4,10.2c0,0-5.5,6.9-7.6,7.8c-5.7,5.4-2.6-2.7-6.8,0.3c-0.5,0,2.6-3.6,1.6-3c-5,3.9-4.7-0.9-3.4-6.3l0.8-0.9
		c0.3-0.9-2.3,1.8-2.3,1.2c0.5-0.6,0.8-0.9,1.3-1.8c-1.6,2.1-1,0.3-2.3,1.8c0.5-0.9,1.6-2.4,2.1-3.6l-1.8,2.1
		c-4.4,4.8-1-1.5-3.6,0.6l1-1.5c-3.4,2.4-4.2,0.6-6.3,0.6c0.8-0.9,1.8-2.4,2.3-3.3c-1.6,2.4-2.3,2.4-3.1,2.7c1.6-2.7-2.1,1.8-1.6,0
		l0.5-0.6c-2.1,2.1,0.5-2.1-1.8,0.9l1.3-2.1c-2.6,3.3,1-2.1-0.5-0.6l-0.5,0.6c-0.8,0.6,0.3-1.2-0.3-0.9l0.3-0.3
		c-1,0.3,0-1.8-1.8,0.9c1.3-2.1,1-0.6,3.1-3.9c-3.4,1.5-4.7-0.6-6.3-2.1c0.8-1.2,0.8-1.5,1.6-2.7c-0.5,0.3-1,0-2.1,1.2
		c0,0,0.8-1.5,0.8-1.8c0.5-1.2-2.3,2.7-1.8,1.2c0.8-0.6,1.3-1.2,2.1-2.4c-1.8,1.8-1.8,1.2-2.6,1.5c0.5-0.3,0.8-0.6,1.3-1.5
		c-2.1,2.1-0.3-0.9-1.6,0.3l1.3-1.5c0.8-2.4-2.6,3-2.1,1.5l1.3-1.8c-2.3,2.4-2.3,0.9-3.4,1.5c0.3-0.3,0.5-0.6,0.5-0.6
		c-0.8,0-0.5-1.5-1.8-0.6c0.3-0.9,2.6-3.9,1.8-3.6c-2.1,3.3-1.6,0.6-3.9,4.5c0-0.9,0.3-2.7-0.8-1.8c1-0.9,2.6-3.9,3.1-3.9l1-2.1
		c1-1.2,0,0.9,1-0.9c-0.3,0-1.6,0.9-1.3,0.3c-1.6,1.5-4.4,4.8-5.2,4.8c1-0.9,2.3-3.6,2.9-3.9l-5,5.4c-0.3,0,1.8-2.4,1-1.8
		c-0.5,0.6-1,1.2-1.6,1.8c0.3-0.3-1,0.3,1-3c0.8-1.5,0.8-0.6,1.3-1.8c-0.3-0.3-1,0.9-1.3,0.6l0.3-0.3c0-0.6-1.6,0.9-2.6,2.7
		c0,0,1.3-2.1,0.8-0.9c-1.3,1.5-2.1,1.8-2.3,1.5c0.5-0.3,1-1.2,1.8-2.1c-2.1,2.1-3.1,2.4-4.2,3c0.5-0.6,1.3-1.8,1.6-1.8
		c0.8-2.1-3.1,1.8-1.6-1.5c0.3,0-1.3,2.1-1,1.8c0-0.6,1.6-2.7,0.8-2.1c0.8-1.5-0.5,0-1,0.3c-0.5,0.6,0,0,0.3-0.3
		c-1,0.6-3.1,1.2-2.3-0.9c-0.5,0.9-2.6,2.7-2.6,2.4l1.6-1.8c0.3-0.3,0.3-0.6,0.3-0.6l0,0c0,0,0,0,0-0.3c0.3,0,0.3,0,0.5,0l0,0
		c-0.3,0-0.3,0.3-0.5,0.3c0.3,0,0.3-0.3,0.5-0.6c-0.5,0.3-0.5,0.6-0.5,0.6c-0.5,0.3-1.3,0.9-0.5-0.6c-0.3,0.3,2.1-2.7,1.8-2.7
		c-0.5,0-0.8,0.9-1.6,1.2l-0.8,0.6c-1.3,2.1-0.3-0.6-1.6,1.8c1-1.5-1.3,0.3,1-2.7l1.8-2.4c-0.3,0-2.3,2.4-3.1,3.3l0.8-1.2
		c-2.6,3.9,0-0.6-2.3,2.1c0.5-1.8-0.8-1.2,0.8-3.6c-1,0.9-2.3,2.1-2.1,0.9c0.3-0.3,0.5-0.3,1-1.2c0.5-1.5-0.3-0.3-0.8,0
		c0.3-0.6,1-2.7,1.8-4.2c-1,0.9-2.3,3-3.4,4.2c2.6-4.2-2.3,1.5-0.3-2.1c0.5-0.6,1.6-1.5,2.1-2.7c2.3-4.2-2.3,2.1-1.6,0l-2.1,3.3
		c1.3-2.1-1.8,1.2,0.5-1.8c-0.8,0.9,0.3-1.5-1.8,1.5c1-3-2.6,0,0.8-5.7c-0.3,0.3-0.3-0.3-1.3,1.2c-1,1.8,1-0.9,0.3,0.3
		c0,0-0.8,0.9-1,1.2c0.3-0.9,0.3-1.2,2.3-3.6c0.8-2.1-4.2,4.8-3.9,3c0.8-1.5,1-1.8,0.8-1.8l-1.8,1.8c0-0.9,1.8-3,3.4-5.1
		c-0.5,0-0.5-0.3-1.8,1.2l1.6-3c-1.3,2.1-1,1.2-1.6,1.5l0.5-0.3c0.8-0.9,0-0.6-0.3-0.3c-1,1.5-1,2.1-1.3,2.7
		c-0.5,0.9-0.5,0.6-1.6,1.5c1.6-2.1,0.8-1.8,0.8-2.1c0-0.6-1.6,1.5-1.6,1.5c0.8-0.9-0.3-0.3,1-1.8c0.5-0.3-0.5,1.2,0.3,0.3
		c0.3-0.9,1.8-2.7,0.5-1.5c-1,0.9-2.9,4.2-2.3,2.4c0.3-0.3,1-1.2,1.6-1.8l0.5-1.5l-1.3,1.8c0.3-0.6,0.3-0.6,0.5-0.9
		c-1.6,2.1-1,0.3-2.6,2.4c-0.3,0,0.5-1.8,0.5-2.1h0.3c0.5-1.2-0.3-0.9-1.3,0.3l0.3-0.3c0,0-0.3,0-1.3,0.9c0.8-1.5,5.2-7.2,3.1-5.1
		c-0.3,0-2.9,3.3-3.6,4.5c0.3-1.5-2.3,0.9-0.8-2.4c-0.5,0.6-0.8,1.2-1.3,1.5c-0.3-1.2-3.1,0.9-1-3.3c0.8-0.6,1.3-1.8,2.1-3
		c-1.3,1.5,1-1.8-1,0.9c-1.3,1.5-1.8,2.4-2.1,3.3c-1,0.6-1.6,0-0.8-1.8c-0.3,0.9-0.8,1.5-1.3,1.8c2.1-2.7,2.1-3.3,1-2.7l-1.3,1.5
		l1-1.8c-0.3,0.3-2.3,3.3-1.6,1.5l1.3-1.8c-1,1.2-3.1,3.3-2.3,1.5l1.6-2.7c-0.3,0.3-1.6,1.5-1.8,2.4c0.5-1.8,0.5-2.4,1.8-4.5
		c-4.4,4.5-5.7,3.6-6.3,2.4l1-1.2c0.5-1.5-1.8,1.8-1.3,0.9c0.8-0.9,1.6-2.7,2.9-3.9c0.5-1.5-2.1,1.8-2.6,2.1c-1,1.5,1-0.9-0.5,1.2
		c-0.3,0.3,0.5-1.8-1.3,0.6c0.8-1.2,2.1-3,2.9-3.9l-1,0.9c1.8-3.3,4.2-4.5,6.5-8.4l-0.5,0.3c1.8-3,2.6-2.7,2.9-3.9
		c-1,0.9-3.9,4.5-4.4,5.7c-0.8,0.3-4.4,5.7-4.7,5.1c1-1.5,0.8,0,2.1-2.1c1-2.4-1.3,0.6-1-0.3c-0.5,1.2-2.3,3.6-2.9,3.9
		c0.5-1.2,1.8-2.1,1.6-2.7c-1,1.2-2.1,2.1-2.6,3.3c-2.6,3.3,0.3-1.2-1.8,1.2c1.3-2.4,3.9-4.8,4.4-6.3c-1.6,2.4-2.6,2.7-4.7,6
		c0.3-0.6,1.6-2.4,2.6-3.6c0.8-1.5-3.4,3.6-0.3-0.9l-1.6,2.1c0.5-0.6,0.8-1.5,1.6-2.7c0-0.3-2.6,2.4-0.3-0.9c-0.3,0-0.5-0.3-2.1,2.1
		c-0.8,1.5,1.6-1.5-0.5,1.8c1.8-2.7-0.5,0-1.3,0.6l1-1.2c-0.5,0.3-0.5,0-1.6,1.2c0.5-0.9,1-1.8,1.3-2.1l-1.6,1.8
		c-1,0.6,2.3-3.6,1.6-3.3l1.3-1.2c-0.3,0.3,0.8-1.5,0.3-1.2c-1.3,1.8-3.1,3.9-4.2,5.1c-0.8,0.9,1.3-2.1-0.3-0.3l1.8-2.1
		c0.3-0.6,1.8-3,1.6-3.3c-0.5,0.6-2.6,3-3.1,4.2c0-0.3,0.5-1.5,1.6-2.7c-0.8,0.3-1.3,1.8-2.3,2.7c0.8-1.5,1.6-3.3,2.6-5.4l2.3-2.7
		l-0.3-0.3c1.8-2.4,1-2.1,3.1-4.5c0-0.3-0.8,0.3-1.3,0.9c-2.6,4.5-4.4,5.1-7,9c-1,0.6,6.3-9.3,1.6-3.9c-0.5,0.9-2.1,2.7-2.1,3
		c-0.5,0.6-2.3,3-1.8,1.5c1.3-1.2,2.3-4.2,4.4-6c-1,1.2-0.5,1.2-0.3,0.9c0.8-1.5,2.6-3.6,2.3-3.9c-0.5,0.3-0.8,0-2.1,2.1
		c-1.6,2.1,0.3,0-1.3,2.1c-1,0.3,1.3-3-1.6,0.6c0.5,0-1,2.1-2.1,3.6l-1,0.6l1-1.2c0.3-1.5-1.8,2.4-2.1,1.5l1.8-3
		c1.8-2.4-0.3,1.5,2.6-2.4c-0.3-0.3-1.8,1.5-1.3,0.3l0.8-0.6c0-0.3,3.6-5.7,1-3c-1,0.9-1,1.2-2.1,2.7c-0.8,0-1.8,1.2-2.3,1.2
		c2.1-2.7-0.3-0.6,2.1-3.3c-1,1.8-0.3,2.4,1.8-0.3c2.3-3.6,0,0.9,2.6-2.4c-0.3-0.3,2.1-3.6,3.6-6c0-0.3-0.8,0.6-1,0.9
		c-1.6,2.1-1.3,2.1-2.9,4.2c0-1.2-1.3-0.3-2.9,1.5c0.5-1.2,2.1-3.3,2.3-3.3C2071.7,10748.9,2071.4,10748.2,2071.4,10747"/>
	<path id="path98-9_1_" class="st73" d="M2071.2,10760c-0.3,0.3-0.3,0.3-0.3,0C2071.2,10760,2071.2,10760,2071.2,10760"/>
	<path id="path100-5_1_" class="st73" d="M2114.7,10791.2L2114.7,10791.2L2114.7,10791.2L2114.7,10791.2"/>
	<path id="path102-6_1_" class="st73" d="M2069.6,10732.6l2.9-4.2C2071.4,10729.9,2071.2,10731.1,2069.6,10732.6"/>
	<path id="path104-6_1_" class="st73" d="M2068.8,10749.5c0.3-0.6-0.3,0.6-0.5,0.9c0,0-1,1.2-0.5,0.3
		C2067.8,10750.7,2068.3,10750.1,2068.8,10749.5"/>
	<path id="path106-7_1_" class="st73" d="M2069.9,10751.9c-0.8,1.2-1.8,1.8-2.3,1.8L2069.9,10751.9"/>
	<path id="path108_1_" class="st73" d="M2067.8,10758.5c-0.5,1.2-1,1.5-1.3,1.5L2067.8,10758.5"/>
	<path id="path110_1_" class="st73" d="M2069.9,10755.8c0.3,0,0,0.6-0.5,1.2C2069.4,10756.7,2068.6,10757.6,2069.9,10755.8"/>
	<path id="path112_1_" class="st73" d="M2069.4,10757c0,0,0,0.3-0.3,0.3L2069.4,10757"/>
	<path id="path114_1_" class="st73" d="M2070.9,10762.7c0.3,0,1-0.9,0.3,0.6C2071.7,10762.1,2069.6,10764.5,2070.9,10762.7"/>
	<path id="path116_1_" class="st73" d="M2072.7,10763.9l1-1.5c0,0,0,0.3,0.3,0C2073.5,10763,2073,10763.9,2072.7,10763.9"/>
	<path id="path118_1_" class="st73" d="M2106.4,10785.8l0.8-0.9l-0.3,0.6L2106.4,10785.8"/>
	<path id="path120_1_" class="st73" d="M2119.1,10799c-0.3,0,1-1.5,0.8-1.5C2120.7,10796.9,2119.1,10798.7,2119.1,10799"/>
	<path id="path122_1_" class="st73" d="M2131.1,10798.1l1.8-2.4L2131.1,10798.1L2131.1,10798.1"/>
	<path id="path124_1_" class="st81" d="M1560.4,7981.4c0,78.1-245.7,141.6-548.8,141.3c-302.8-0.3-548.5-64-548.5-142.5
		c0-78.1,245.7-141.6,548.8-141.3C1314.7,7839.2,1560.4,7902.9,1560.4,7981.4"/>
	<path id="path126_1_" class="st82" d="M1347.3,8461c-514.4,61.9-823.7-28.6-824-28.9l31-402.1c0,0,239.5-95.6,191.5,49.6
		c-35.7,108.5-140.2,0-140.2,0l13.8,286.1c356-51.4,643.4,7.8,643.4,7.8l6.8-330c0,0,255.4-68.2,193.1,59.8
		c-44.3,90.8-136.3,11.7-136.3,11.7L1347.3,8461"/>
	<path id="path128_1_" class="st83" d="M1394.2,9175.8c0,0-176.2-199.6-946.4-9.3c11.5,593.6,264.2,800.7,264.2,800.7
		C1509.6,10338,1394.2,9175.8,1394.2,9175.8"/>
	<path id="path130_1_" class="st82" d="M1536.7,10329c-244.4-298.1-361.7-8.4-629.3-14.4c-258-5.7-292.1-179.1-292.1-179.1
		c-410.9,194.1-167.8-969.4-167.8-969.4c114.9,68.2,219.7,360.1,219.7,360.1s-114.1-33.7-87.3,71.5c26.6,104.9,110,4.5,110,4.5
		l98.2,217.9C1454.9,9636.5,1536.7,10329,1536.7,10329"/>
	<path id="path132_1_" class="st82" d="M1180,9580.6c-1,29.2,10.2,52.9,24.8,53.5c14.3,0.6,27.1-22.5,27.9-51.4
		s-10.2-52.9-24.8-53.5C1193.5,9528.6,1180.8,9551.7,1180,9580.6"/>
	<path id="path134_1_" class="st82" d="M852.2,9572.5c-0.8,28.9,10.2,52.9,24.8,53.5c14.3,0.6,26.8-22.5,27.9-51.4
		c0.8-28.9-10.2-52.9-24.8-53.5C865.7,9520.5,853,9543.6,852.2,9572.5"/>
	<path id="path136_1_" class="st82" d="M922.3,9407.2c107.6,44.5,257.7,8.4,257.7,8.4s0-129.5-114.4-129.5
		C954.1,9286.1,924.4,9360.9,922.3,9407.2"/>
	<path id="path138_1_" class="st73" d="M1394.2,9175.8c-317.9-120.2-946.4-9.6-946.7-9.6l76.1-734c500.6-64.3,823.7,28.9,823.7,28.9
		L1394.2,9175.8"/>
	<path id="path140_1_" class="st83" d="M1790,9543c-49.2-684.4-187.1-659.1-284.3-555.4l-65.9-102.5
		c374.7-414.5,470.1,655.2,470.1,655.2s21.6,114.8,2.9,119.9c-10.4,2.7-18.5-7.2-19.8-13.5c-1.3,9.3-1,24-12.5,27
		c-12.8,3.3-17.2-12.9-18.5-21c1,9.9,10.7,31-11.7,34.3c-7.8,1.2-15.9-10.5-18-20.7c5.5,43.3,14.1,140.4-13.5,140.4
		C1794.2,9806.6,1790,9543,1790,9543"/>
	<path id="path142_1_" class="st73" d="M1371.8,8958.2c17.7-24,51.3-55,67.8-73.3l65.9,102.5c-56.3,59.8-118.6,149.1-118.6,149.1
		L1371.8,8958.2"/>
	<path id="path144_1_" class="st73" d="M451.2,9137c0,0-59.2-12.6-116.7-77.5l62-98c18,21.3,39.9,39.4,66.4,53.2L451.2,9137"/>
	<path id="path146_1_" class="st83" d="M334.7,9059.7c-83.6-94.1-163.6-297.5-54.5-731.2l23.2-97.1c2.3-7.8,9.9-30.7,23.7-26.4
		c6.5,2.1,8.6,9.6,8.9,17.1c3.9-6.6,9.4-11.4,16.4-9.3c6,1.8,8.3,7.8,8.9,14.7c3.9-5.4,9.1-9.6,15.4-7.5c6.5,2.1,8.6,9.6,8.9,17.1
		c3.9-6.6,9.4-11.4,16.4-9.3c14.9,4.5,6.3,40.6,4.7,46.3l-27.9,80.8c0,0-140.5,422,18,606.8L334.7,9059.7"/>
	<path id="path148_1_" class="st82" d="M1140.9,9015.6l-77.4-9.6l-17.2-34.6l32.1-52.9l-43.3-286.4l77.9-106.4l69.6,118.7l-50,278.9
		l27.9,49.6L1140.9,9015.6"/>
</g>
<text transform="matrix(1 0 0 1 895.9041 222.8996)" class="st84 st85 st86">Career</text>
<text transform="matrix(1 0 0 1 995.7041 379.8996)" class="st84 st85 st87">Levels</text>
</svg>
